"서비스구분","서비스ID","대분류명","소분류명","서비스상태","서비스명","결제방법","장소명","서비스대상","바로가기URL","장소X좌표","장소Y좌표","서비스개시시작일시","서비스개시종료일시","접수시작일시","접수종료일시","지역명"
"자체","S191217090546472375","시설대관","강의실","예약일시중지","서대문구 충현동 자치회관 3층 다산실 (2020)","무료","충현동 자치회관","제한없음","http://yeyak.seoul.go.kr/reservation/view.web?rsvsvcid=S191217090546472375","37.56293324068303","126.96237741243054","2020-03-01 00:00:00.0","2020-12-31 00:00:00.0","2020-03-01 09:00:00.0","2020-12-26 18:00:00.0","서대문구"
"자체","S191217123247744579","시설대관","강의실","예약일시중지","서대문구 충현동 자치회관 4층 겸재실 (2020)","무료","충현동 자치회관","제한없음((서울시 관련시민-상세정보 확인))","http://yeyak.seoul.go.kr/reservation/view.web?rsvsvcid=S191217123247744579","37.56293324068303","126.96237741243054","2020-03-01 00:00:00.0","2020-12-31 00:00:00.0","2020-03-01 09:00:00.0","2020-12-26 18:00:00.0","서대문구"
"자체","S191212184916228858","시설대관","다목적실","예약일시중지","서대문구 북아현동 주민센터 문화사랑방(303호) 2020년","무료","북아현동 주민센터>3층 강의실(문화사랑방)","제한없음((서울시 관련시민-상세정보 확인))","http://yeyak.seoul.go.kr/reservation/view.web?rsvsvcid=S191212184916228858","37.559471590822554","126.95703708357375","2019-12-12 00:00:00.0","2020-12-31 00:00:00.0","2019-12-12 00:00:00.0","2020-12-29 23:59:00.0","서대문구"
"자체","S191213094427254120","시설대관","강의실","예약일시중지","서대문구 홍제1동 자치회관 4층 문화1실(2020년)","무료","홍제1동 자치회관>4층 강의실1","제한없음","http://yeyak.seoul.go.kr/reservation/view.web?rsvsvcid=S191213094427254120","37.58316430814648","126.94841005208602","2020-04-01 00:00:00.0","2020-12-31 00:00:00.0","2020-04-01 09:00:00.0","2020-12-31 18:00:00.0","서대문구"
"자체","S191209164916946497","시설대관","강의실","접수중","서대문구 북가좌1동 주민센터 2층 문화교실1 (2020)","무료","북가좌1동 주민센터","제한없음","http://yeyak.seoul.go.kr/reservation/view.web?rsvsvcid=S191209164916946497","37.57436929991179","126.91013574343301","2019-12-10 00:00:00.0","2020-12-31 00:00:00.0","2019-12-10 00:00:00.0","2020-12-31 23:59:00.0","서대문구"
"자체","S191210104210018047","시설대관","강의실","접수중","서대문구 북가좌1동 주민센터 2층 문화교실 2 (2020)","무료","북가좌1동 주민센터","제한없음","http://yeyak.seoul.go.kr/reservation/view.web?rsvsvcid=S191210104210018047","37.57436929991179","126.91013574343301","2019-12-10 00:00:00.0","2020-12-31 00:00:00.0","2019-12-10 00:00:00.0","2020-12-25 23:59:00.0","서대문구"
"자체","S191210104629859571","시설대관","강의실","접수중","서대문구 북가좌1동 주민센터 2층 문화교실3 (2020)","무료","북가좌1동 주민센터","제한없음","http://yeyak.seoul.go.kr/reservation/view.web?rsvsvcid=S191210104629859571","37.57436929991179","126.91013574343301","2019-12-10 00:00:00.0","2020-12-31 00:00:00.0","2019-12-10 00:00:00.0","2020-12-25 23:59:00.0","서대문구"
"자체","S191203100427717494","시설대관","다목적실","접수중","서대문구 천연동 주민센터 2층 다목적실 (2020)","무료","천연동 주민센터","제한없음(서울시 관련시민-상세정보 확인)","http://yeyak.seoul.go.kr/reservation/view.web?rsvsvcid=S191203100427717494","37.571113181697115","126.95906794418431","2019-12-03 00:00:00.0","2020-12-30 00:00:00.0","2019-12-03 00:00:00.0","2020-12-24 23:59:00.0","서대문구"
"자체","S191205173843384017","시설대관","회의실","접수중","서대문구 천연동 주민센터 2층 취미문화교실(2020)","무료","천연동 주민센터","제한없음","http://yeyak.seoul.go.kr/reservation/view.web?rsvsvcid=S191205173843384017","37.571113181697115","126.95906794418431","2019-12-05 00:00:00.0","2020-12-19 00:00:00.0","2019-12-05 00:00:00.0","2020-12-16 00:00:00.0","서대문구"
"자체","S191216125711325272","시설대관","강의실","접수중","서대문구 신촌동 자치회관 제2강의실 (2020)","무료","신촌동 자치회관","제한없음","http://yeyak.seoul.go.kr/reservation/view.web?rsvsvcid=S191216125711325272","37.557816907658285","126.93954540723766","2020-01-01 00:00:00.0","2020-12-31 00:00:00.0","2020-01-01 13:00:00.0","2020-12-31 17:00:00.0","서대문구"
"자체","S191213103538135983","시설대관","강의실","예약일시중지","서대문구 홍제3동 주민센터 3층 문화사랑방 (2020)","무료","홍제3동 주민센터>2층 문화사랑방","제한없음","http://yeyak.seoul.go.kr/reservation/view.web?rsvsvcid=S191213103538135983","","","2019-12-13 00:00:00.0","2020-12-31 00:00:00.0","2019-12-13 00:00:00.0","2020-12-28 23:59:00.0","서대문구"
"자체","S191213092052648391","시설대관","주민사랑방","접수중","서대문구 홍제3동 주민센터 1층 홍삼카페 (2020)","무료","홍제3동 주민센터>1층 홍삼카페","제한없음","http://yeyak.seoul.go.kr/reservation/view.web?rsvsvcid=S191213092052648391","37.5937677419","126.9496935705","2019-12-13 00:00:00.0","2020-12-31 00:00:00.0","2019-12-13 00:00:00.0","2020-12-28 00:00:00.0","서대문구"
"자체","S191210174729945051","시설대관","강의실","예약일시중지","서대문구 남가좌2동 주민센터 5층 강의실 (2020)","무료","남가좌2동 주민센터","제한없음","http://yeyak.seoul.go.kr/reservation/view.web?rsvsvcid=S191210174729945051","37.57843342685433","126.92386526715621","2020-04-01 00:00:00.0","2020-12-26 00:00:00.0","2020-04-01 00:00:00.0","2020-12-26 23:59:00.0","서대문구"
"자체","S191211103130353525","시설대관","강의실","예약일시중지","서대문구 남가좌2동 주민센터 지하1층 강의실 (2020)","무료","남가좌2동 주민센터","제한없음","http://yeyak.seoul.go.kr/reservation/view.web?rsvsvcid=S191211103130353525","37.57843342685433","126.92386526715621","2020-04-01 00:00:00.0","2020-12-26 00:00:00.0","2020-04-01 00:00:00.0","2020-12-26 23:59:00.0","서대문구"
"자체","S191211110130444751","시설대관","다목적실","예약일시중지","서대문구 남가좌2동 주민센터 4층 다목적실 (2020)","무료","남가좌2동 주민센터","제한없음","http://yeyak.seoul.go.kr/reservation/view.web?rsvsvcid=S191211110130444751","37.57843342685433","126.92386526715621","2020-04-01 00:00:00.0","2020-12-26 00:00:00.0","2020-04-01 00:00:00.0","2020-12-26 23:59:00.0","서대문구"
"자체","S191213101437568380","시설대관","주민사랑방","접수중","서대문구 홍제3동 주민센터 2층 도담방 (2020)","무료","홍제3동 주민센터","제한없음","http://yeyak.seoul.go.kr/reservation/view.web?rsvsvcid=S191213101437568380","37.59376774190354","126.94969357048184","2019-12-13 00:00:00.0","2020-12-31 00:00:00.0","2019-12-13 00:00:00.0","2020-12-28 00:00:00.0","서대문구"
"자체","S191217124538432013","시설대관","기타","예약일시중지","서대문구 충현동 자치회관 지하공연연습실(2020)","무료","충현동 자치회관>지하공연연습실","제한없음","http://yeyak.seoul.go.kr/reservation/view.web?rsvsvcid=S191217124538432013","37.56293324068303","126.96237741243054","2020-03-01 00:00:00.0","2020-12-31 00:00:00.0","2020-03-01 09:00:00.0","2020-12-31 18:00:00.0","서대문구"
"자체","S191212173949046237","시설대관","강의실","예약일시중지","서대문구 북아현동 주민센터 지혜나눔방(302호) 2020년 ","무료","북아현동 주민센터>3층 강의실(지혜나눔방)","제한없음","http://yeyak.seoul.go.kr/reservation/view.web?rsvsvcid=S191212173949046237","37.559471590822554","126.95703708357375","2019-12-12 00:00:00.0","2020-12-31 00:00:00.0","2019-12-12 01:00:00.0","2020-12-28 23:59:00.0","서대문구"
"자체","S191212171234711403","시설대관","강의실","예약일시중지","서대문구 북아현동 주민센터 취미교양실(301호) 2020년","무료","북아현동 주민센터>3층 강의실(취미교양실)","제한없음((서울시 관련시민-상세정보 확인))","http://yeyak.seoul.go.kr/reservation/view.web?rsvsvcid=S191212171234711403","37.559471590822554","126.95703708357375","2019-12-12 00:00:00.0","2020-12-31 00:00:00.0","2019-12-12 00:00:00.0","2020-12-29 23:59:00.0","서대문구"
"자체","S191212095320440932","시설대관","다목적실","접수중","서대문구 북가좌2동 주민센터 2층 다목적실(회의)(2020)","무료","북가좌2동 주민센터","제한없음","http://yeyak.seoul.go.kr/reservation/view.web?rsvsvcid=S191212095320440932","37.581491544535424","126.91117779767317","2020-01-01 00:00:00.0","2020-12-31 00:00:00.0","2020-01-01 00:00:00.0","2020-12-31 23:59:00.0","서대문구"
"자체","S191212103512060609","시설대관","강의실","접수중","서대문구 북가좌2동 주민센터 2층 취미문화교실(2020)","무료","북가좌2동 주민센터","제한없음((서울시 관련시민-상세정보 확인))","http://yeyak.seoul.go.kr/reservation/view.web?rsvsvcid=S191212103512060609","37.581491544535424","126.91117779767317","2020-01-01 00:00:00.0","2020-12-31 00:00:00.0","2020-01-01 00:00:00.0","2020-12-31 23:59:00.0","서대문구"
"자체","S200106091139090771","시설대관","기타","접수중","서대문구 서대문구청 열린쉼터(2020)","무료","서대문구청","제한없음","http://yeyak.seoul.go.kr/reservation/view.web?rsvsvcid=S200106091139090771","37.57915462693909","126.93676132609222","2020-01-06 00:00:00.0","2020-12-31 00:00:00.0","2020-01-06 10:00:00.0","2020-12-28 23:59:00.0","서대문구"
"자체","S191213100325827880","시설대관","강의실","예약일시중지","서대문구 홍제3동 주민센터 2층 멀티학습실 (2020)","무료","홍제3동 주민센터>2층 멀티학습실","제한없음","http://yeyak.seoul.go.kr/reservation/view.web?rsvsvcid=S191213100325827880","","","2019-12-13 00:00:00.0","2020-12-31 00:00:00.0","2019-12-13 00:00:00.0","2020-12-28 00:00:00.0","서대문구"
"자체","S191126191524157603","시설대관","강의실","접수중","서대문구 홍은1동 주민센터 3층 강좌실 (2020)","무료","홍은1동 주민센터>3층 강좌실","제한없음","http://yeyak.seoul.go.kr/reservation/view.web?rsvsvcid=S191126191524157603","","","2020-01-02 00:00:00.0","2020-12-31 00:00:00.0","2020-01-02 00:00:00.0","2020-12-28 00:00:00.0","서대문구"
"자체","S191216112154213687","시설대관","강의실","접수중","서대문구 홍은2동 주민센터 예술교실 (2020년)","무료","홍은2동 주민센터","제한없음","http://yeyak.seoul.go.kr/reservation/view.web?rsvsvcid=S191216112154213687","37.58010825376338","126.93415214597783","2019-12-23 00:00:00.0","2020-12-31 00:00:00.0","2019-12-23 00:00:00.0","2020-12-31 00:00:00.0","서대문구"
"자체","S191216112712023531","시설대관","강의실","접수중","서대문구 홍은2동 주민센터 취미교실 (2020년)","무료","홍은2동 주민센터","제한없음","http://yeyak.seoul.go.kr/reservation/view.web?rsvsvcid=S191216112712023531","37.58010825376338","126.93415214597783","2019-12-23 00:00:00.0","2020-12-31 00:00:00.0","2019-12-23 00:00:00.0","2020-12-31 00:00:00.0","서대문구"
"자체","S200120131906874224","시설대관","기타","접수중","서대문구 서대문체육회관 대체육관(2020)","유료(요금안내문의)","서대문체육회관","제한없음","http://yeyak.seoul.go.kr/reservation/view.web?rsvsvcid=S200120131906874224","37.58075909689231","126.93155676195145","2020-01-20 00:00:00.0","2020-12-31 00:00:00.0","2020-01-20 00:00:00.0","2020-12-28 23:59:00.0","서대문구"
"자체","S191212165729635601","시설대관","기타","예약일시중지","서대문구 북아현동 주민센터 지하 음악교실 2020년","무료","북아현동 주민센터>지하 음악교실","제한없음((서울시 관련시민-상세정보 확인))","http://yeyak.seoul.go.kr/reservation/view.web?rsvsvcid=S191212165729635601","37.559471590822554","126.95703708357375","2019-12-12 00:00:00.0","2020-12-31 00:00:00.0","2019-12-12 00:00:00.0","2020-12-29 23:59:00.0","서대문구"
"자체","S191213101017326477","시설대관","강의실","예약일시중지","서대문구 홍제1동 자치회관 4층 문화2실(2020년)","무료","홍제1동 자치회관>4층 강의실2","제한없음","http://yeyak.seoul.go.kr/reservation/view.web?rsvsvcid=S191213101017326477","37.58316430814648","126.94841005208602","2020-04-01 00:00:00.0","2020-12-31 00:00:00.0","2020-04-01 09:00:00.0","2020-12-31 18:00:00.0","서대문구"
"자체","S200204134047428640","시설대관","다목적실","예약일시중지","서대문구 홍제2동 주민센터 3층 다목적실","무료","홍제2동 주민센터","제한없음","http://yeyak.seoul.go.kr/reservation/view.web?rsvsvcid=S200204134047428640","37.58610556442067","126.94936812571657","2020-01-01 00:00:00.0","2022-12-31 00:00:00.0","2020-02-04 09:00:00.0","2022-11-30 18:00:00.0","서대문구"
"자체","S191211140350477018","시설대관","강당","예약일시중지","서대문구 남가좌1동 주민센터 지하2층 커뮤니티실1(2020)","무료","남가좌1동 주민센터","제한없음","http://yeyak.seoul.go.kr/reservation/view.web?rsvsvcid=S191211140350477018","37.57327343120414","126.91978172553527","2020-01-06 00:00:00.0","2020-12-25 00:00:00.0","2020-01-06 00:00:00.0","2020-12-25 00:00:00.0","서대문구"
"자체","S191211140917424095","시설대관","강의실","예약일시중지","서대문구 남가좌1동 주민센터 지하2층 커뮤니티실2(2020)","무료","남가좌1동 주민센터","제한없음","http://yeyak.seoul.go.kr/reservation/view.web?rsvsvcid=S191211140917424095","37.57327343120414","126.91978172553527","2020-01-06 00:00:00.0","2020-12-25 00:00:00.0","2020-01-06 00:00:00.0","2020-12-25 23:59:00.0","서대문구"
"자체","S191211141152936545","시설대관","강의실","예약일시중지","서대문구 남가좌1동 주민센터 지하2층 커뮤니티실3(2020)","무료","남가좌1동 주민센터","제한없음","http://yeyak.seoul.go.kr/reservation/view.web?rsvsvcid=S191211141152936545","37.57327343120414","126.91978172553527","2020-01-06 00:00:00.0","2020-12-25 00:00:00.0","2020-01-06 00:00:00.0","2020-12-25 23:59:00.0","서대문구"
"자체","S191211141504780680","시설대관","강당","예약일시중지","서대문구 남가좌1동 주민센터 3층 대강당(2020)","무료","남가좌1동 주민센터","성인","http://yeyak.seoul.go.kr/reservation/view.web?rsvsvcid=S191211141504780680","37.57327343120414","126.91978172553527","2020-01-06 00:00:00.0","2020-12-25 00:00:00.0","2020-01-06 00:00:00.0","2020-12-25 23:59:00.0","서대문구"