"서비스구분","서비스ID","대분류명","소분류명","서비스상태","서비스명","결제방법","장소명","서비스대상","바로가기URL","장소X좌표","장소Y좌표","서비스개시시작일시","서비스개시종료일시","접수시작일시","접수종료일시","지역명"
"자체","S191227104727507335","시설대관","다목적실","접수중","금천구 독산4동 주민센터 5층 문화관람실","유료(요금안내문의)","독산4동주민센터","제한없음","http://yeyak.seoul.go.kr/reservation/view.web?rsvsvcid=S191227104727507335","37.467554517908894","126.90217004454725","2020-01-01 00:00:00.0","2020-12-31 00:00:00.0","2020-01-01 09:00:00.0","2020-12-31 21:00:00.0","금천구"
"자체","S191227141754340698","시설대관","다목적실","접수중","금천구 독산4동주민센터 1층 모두공간","유료(요금안내문의)","독산4동주민센터","제한없음","http://yeyak.seoul.go.kr/reservation/view.web?rsvsvcid=S191227141754340698","37.467554517908894","126.90217004454725","2020-01-01 00:00:00.0","2020-12-31 00:00:00.0","2020-01-01 09:00:00.0","2020-12-31 21:00:00.0","금천구"
"자체","S191227142435215791","시설대관","다목적실","접수중","금천구 독산4동주민센터 2층 너나들방","유료(요금안내문의)","독산4동주민센터","제한없음","http://yeyak.seoul.go.kr/reservation/view.web?rsvsvcid=S191227142435215791","37.467554517908894","126.90217004454725","2020-01-01 00:00:00.0","2020-12-31 00:00:00.0","2020-01-01 09:00:00.0","2020-12-31 21:00:00.0","금천구"
"자체","S200102092429353297","시설대관","회의실","접수중","금천구 시흥1동주민센터 2층 주민대화방 ","유료","시흥1동주민센터>금천구 시흥1동 주민센터 함께하는 공간 띵동","제한없음","http://yeyak.seoul.go.kr/reservation/view.web?rsvsvcid=S200102092429353297","37.453553683940186","126.90325066718337","2020-01-02 00:00:00.0","2020-12-31 00:00:00.0","2020-01-02 09:00:00.0","2020-12-31 18:00:00.0","금천구"
"자체","S190114182928354175","시설대관","강의실","접수중","금천구 시흥5동주민센터 문화사랑방","유료(요금안내문의)","시흥5동주민센터","제한없음","http://yeyak.seoul.go.kr/reservation/view.web?rsvsvcid=S190114182928354175","37.45239720978365","126.90830631607865","2020-01-01 00:00:00.0","2020-12-31 00:00:00.0","2020-01-01 00:00:00.0","2020-12-31 00:00:00.0","금천구"
"자체","S190114191029181716","시설대관","다목적실","접수중","금천구 시흥5동주민센터 지하강의실","유료(요금안내문의)","시흥5동주민센터","제한없음","http://yeyak.seoul.go.kr/reservation/view.web?rsvsvcid=S190114191029181716","37.45239720978365","126.90830631607865","2020-01-01 00:00:00.0","2020-12-31 00:00:00.0","2020-01-01 00:00:00.0","2020-12-31 00:00:00.0","금천구"
"자체","S200110113204756960","시설대관","강당","접수중","금천구 시흥5동주민센터 문화관람실","유료(요금안내문의)","시흥5동주민센터","제한없음","http://yeyak.seoul.go.kr/reservation/view.web?rsvsvcid=S200110113204756960","37.45239720978365","126.90830631607865","2020-01-01 00:00:00.0","2020-12-31 00:00:00.0","2020-01-01 00:00:00.0","2020-12-31 00:00:00.0","금천구"
"자체","S200102094147218813","시설대관","회의실","접수중","금천구 시흥1동주민센터 2층 회의실","유료","시흥1동주민센터","제한없음","http://yeyak.seoul.go.kr/reservation/view.web?rsvsvcid=S200102094147218813","37.453553683940186","126.90325066718337","2020-01-02 00:00:00.0","2020-12-31 00:00:00.0","2020-01-02 09:00:00.0","2020-12-31 18:00:00.0","금천구"
"자체","S200102100552589105","시설대관","다목적실","접수중","금천구 시흥1동주민센터 3층 주민자치실","유료","시흥1동주민센터","제한없음","http://yeyak.seoul.go.kr/reservation/view.web?rsvsvcid=S200102100552589105","37.453553683940186","126.90325066718337","2020-01-02 00:00:00.0","2020-12-31 00:00:00.0","2020-01-02 09:00:00.0","2020-12-31 18:00:00.0","금천구"
"자체","S200118102827594052","시설대관","회의실","접수중","금천구 시흥3동주민센터 소회의실","유료(요금안내문의)","시흥3동주민센터","제한없음","http://yeyak.seoul.go.kr/reservation/view.web?rsvsvcid=S200118102827594052","37.440260384782164","126.9058034955428","2020-01-18 00:00:00.0","2020-12-31 00:00:00.0","2020-01-18 09:00:00.0","2020-12-31 23:59:00.0","금천구"
"자체","S200118104350106654","시설대관","다목적실","접수중","금천구 시흥3동주민센터 지층 제2문화관람실","유료(요금안내문의)","시흥3동주민센터","제한없음","http://yeyak.seoul.go.kr/reservation/view.web?rsvsvcid=S200118104350106654","37.440260384782164","126.9058034955428","2020-01-18 00:00:00.0","2020-12-31 00:00:00.0","2020-01-18 09:00:00.0","2020-12-31 23:59:00.0","금천구"
"자체","S200118105016455659","시설대관","강당","접수중","시흥3동 자치회관 문화관람실(4층)","유료(요금안내문의)","시흥3동주민센터","제한없음","http://yeyak.seoul.go.kr/reservation/view.web?rsvsvcid=S200118105016455659","37.440260384782164","126.9058034955428","2020-01-18 00:00:00.0","2020-12-31 00:00:00.0","2020-01-18 09:00:00.0","2020-12-31 18:00:00.0","금천구"
"자체","S200107110029575712","시설대관","강의실","예약일시중지","금천구 시흥2동주민센터 2층 1강의실","유료(요금안내문의)","시흥2동주민센터","제한없음","http://yeyak.seoul.go.kr/reservation/view.web?rsvsvcid=S200107110029575712","37.44963041628322","126.91461133809083","2020-01-07 00:00:00.0","2020-12-31 00:00:00.0","2020-01-07 00:00:00.0","2020-12-31 23:59:00.0","금천구"
"자체","S200107130407412690","시설대관","강의실","예약일시중지","금천구 시흥2동주민센터 2층 2강의실","유료(요금안내문의)","시흥2동주민센터","제한없음","http://yeyak.seoul.go.kr/reservation/view.web?rsvsvcid=S200107130407412690","37.44963041628322","126.91461133809083","2020-01-07 00:00:00.0","2020-12-31 00:00:00.0","2020-01-07 00:00:00.0","2020-12-31 23:59:00.0","금천구"
"자체","S170310092408643125","시설대관","강당","접수종료","금천구청 대강당","무료","금천구청","제한없음","http://yeyak.seoul.go.kr/reservation/view.web?rsvsvcid=S170310092408643125","37.45706510986268","126.89603515570069","2017-03-01 00:00:00.0","2020-12-31 00:00:00.0","2017-03-01 00:00:00.0","2018-12-31 00:00:00.0","금천구"
"자체","S200108175331778791","시설대관","강의실","접수중","금천구 독산3동주민센터 강의실1호","유료","독산3동주민센터","제한없음","http://yeyak.seoul.go.kr/reservation/view.web?rsvsvcid=S200108175331778791","37.47515986986303","126.90317307923979","2020-01-08 00:00:00.0","2020-12-31 00:00:00.0","2020-01-09 00:00:00.0","2020-12-25 23:59:00.0","금천구"
"자체","S200108175842726884","시설대관","다목적실","접수중","금천구 독산3동주민센터 다목적실","유료","독산3동주민센터","제한없음","http://yeyak.seoul.go.kr/reservation/view.web?rsvsvcid=S200108175842726884","37.47515986986303","126.90317307923979","2020-01-08 00:00:00.0","2020-12-31 00:00:00.0","2020-01-08 00:00:00.0","2020-12-25 23:59:00.0","금천구"
"자체","S200108180441797446","시설대관","강의실","접수중","금천구 독산3동주민센터 강의실3호","유료","독산3동주민센터","제한없음","http://yeyak.seoul.go.kr/reservation/view.web?rsvsvcid=S200108180441797446","37.47515986986303","126.90317307923979","2020-01-08 00:00:00.0","2020-12-31 00:00:00.0","2020-01-08 09:00:00.0","2020-12-25 18:00:00.0","금천구"
"자체","S200108181502448597","시설대관","강당","접수중","금천구 독산3동주민센터 대강당","유료","독산3동주민센터","제한없음","http://yeyak.seoul.go.kr/reservation/view.web?rsvsvcid=S200108181502448597","37.47515986986303","126.90317307923979","2020-01-08 00:00:00.0","2020-12-31 00:00:00.0","2020-01-08 00:00:00.0","2020-12-25 23:59:00.0","금천구"
"자체","S200108182805095842","시설대관","강의실","접수중","금천구 독산3동주민센터 강의실2호","유료","독산3동주민센터","제한없음","http://yeyak.seoul.go.kr/reservation/view.web?rsvsvcid=S200108182805095842","37.47515986986303","126.90317307923979","2020-01-08 00:00:00.0","2020-12-31 00:00:00.0","2020-01-08 09:00:00.0","2020-12-25 18:00:00.0","금천구"
"자체","S191230111441730717","시설대관","강의실","예약일시중지","금천구 가산동주민센터 공부방","무료","가산동주민센터","제한없음","http://yeyak.seoul.go.kr/reservation/view.web?rsvsvcid=S191230111441730717","37.47689073820054","126.89178397254967","2020-01-02 00:00:00.0","2020-12-31 00:00:00.0","2020-01-02 09:00:00.0","2020-12-30 18:00:00.0","금천구"
"자체","S191230125409310877","시설대관","주민사랑방","예약일시중지","금천구 가산동주민센터 가산사랑방","무료","가산동주민센터","제한없음","http://yeyak.seoul.go.kr/reservation/view.web?rsvsvcid=S191230125409310877","37.47689073820054","126.89178397254967","2020-01-02 00:00:00.0","2020-12-31 00:00:00.0","2020-01-02 00:00:00.0","2020-12-30 00:00:00.0","금천구"
"자체","S200102103534253576","시설대관","강당","접수중","금천구 시흥1동 주민센터 4층 문화관람실","유료","시흥1동주민센터>금천구 시흥1동 주민센터 4층 문화관람실","제한없음","http://yeyak.seoul.go.kr/reservation/view.web?rsvsvcid=S200102103534253576","37.453553683940186","126.90325066718337","2020-01-02 00:00:00.0","2020-12-31 00:00:00.0","2020-01-02 09:00:00.0","2020-12-31 18:00:00.0","금천구"
"자체","S191218131949615285","시설대관","다목적실","접수중","금천구 시흥4동주민센터 문화사랑방","유료","시흥4동주민센터","제한없음","http://yeyak.seoul.go.kr/reservation/view.web?rsvsvcid=S191218131949615285","37.45898014640011","126.90618692000302","2019-12-18 00:00:00.0","2020-12-31 00:00:00.0","2019-12-18 09:00:00.0","2020-12-31 18:00:00.0","금천구"
"자체","S191218133439788504","시설대관","주민사랑방","접수중","금천구 시흥4동주민센터 문화관람실","유료","시흥4동주민센터","제한없음","http://yeyak.seoul.go.kr/reservation/view.web?rsvsvcid=S191218133439788504","37.45898014640011","126.90618692000302","2019-12-18 00:00:00.0","2020-12-31 00:00:00.0","2019-12-18 12:00:00.0","2020-12-31 18:00:00.0","금천구"
"자체","S191218133811644076","시설대관","회의실","접수중","금천구 시흥4동주민센터 회의실","유료(요금안내문의)","시흥4동주민센터","제한없음","http://yeyak.seoul.go.kr/reservation/view.web?rsvsvcid=S191218133811644076","37.45898014640011","126.90618692000302","2019-12-18 00:00:00.0","2020-12-31 00:00:00.0","2019-12-18 09:00:00.0","2020-12-31 23:00:00.0","금천구"