"서비스구분","서비스ID","대분류명","소분류명","서비스상태","서비스명","결제방법","장소명","서비스대상","바로가기URL","장소X좌표","장소Y좌표","서비스개시시작일시","서비스개시종료일시","접수시작일시","접수종료일시","지역명"
"자체","S200218151453246298","체육시설","풋살경기장","예약일시중지","풋살 / 반포 / 20년 6월","무료","반포종합운동장","제한없음","http://yeyak.seoul.go.kr/reservation/view.web?rsvsvcid=S200218151453246298","37.5005393518","126.9942640531","2020-05-01 00:00:00.0","2020-06-30 00:00:00.0","2020-05-25 09:00:00.0","2020-06-30 18:00:00.0","서초구"
"자체","S200218154011892357","체육시설","풋살경기장","예약일시중지","풋살 / 반포 / 20년 7월","무료","반포종합운동장","제한없음","http://yeyak.seoul.go.kr/reservation/view.web?rsvsvcid=S200218154011892357","37.5005393518","126.9942640531","2020-06-01 00:00:00.0","2020-07-31 00:00:00.0","2020-06-01 09:00:00.0","2020-07-31 18:00:00.0","서초구"
"자체","S200221124059592964","체육시설","축구장","예약일시중지","축구 / 반포 / 20년 6월 / 평일 / 08:00~18:00","유료","반포종합운동장","제한없음","http://yeyak.seoul.go.kr/reservation/view.web?rsvsvcid=S200221124059592964","37.5005393518","126.9942640531","2020-05-01 00:00:00.0","2020-06-30 00:00:00.0","2020-05-25 09:00:00.0","2020-06-30 18:00:00.0","서초구"
"자체","S200221124756968432","체육시설","축구장","예약일시중지","축구 / 반포 / 20년 6월 / 주말 공휴일 / 11:00~18:00","유료","반포종합운동장","제한없음","http://yeyak.seoul.go.kr/reservation/view.web?rsvsvcid=S200221124756968432","37.5005393518","126.9942640531","2020-05-01 00:00:00.0","2020-06-30 00:00:00.0","2020-05-25 09:00:00.0","2020-06-30 18:00:00.0","서초구"
"자체","S200221125400864621","체육시설","축구장","예약일시중지","축구 / 반포 / 20년 7월 / 평일 / 08:00~18:00","유료","반포종합운동장","제한없음","http://yeyak.seoul.go.kr/reservation/view.web?rsvsvcid=S200221125400864621","37.5005393518","126.9942640531","2020-06-01 00:00:00.0","2020-07-31 00:00:00.0","2020-06-01 09:00:00.0","2020-07-31 18:00:00.0","서초구"
"자체","S200221125943470540","체육시설","축구장","예약일시중지","축구 / 반포 / 20년 7월 / 주말 공휴일 / 11:00~18:00","유료","반포종합운동장","제한없음","http://yeyak.seoul.go.kr/reservation/view.web?rsvsvcid=S200221125943470540","37.5005393518","126.9942640531","2020-06-01 00:00:00.0","2020-07-31 00:00:00.0","2020-06-01 09:00:00.0","2020-07-31 18:00:00.0","서초구"
"자체","S200307165217720480","체육시설","족구장","예약일시중지","족구 / 반포 / 20년 6월","무료","반포종합운동장","제한없음","http://yeyak.seoul.go.kr/reservation/view.web?rsvsvcid=S200307165217720480","37.5005393518","126.9942640531","2020-05-01 00:00:00.0","2020-06-30 00:00:00.0","2020-05-25 09:00:00.0","2020-06-30 00:00:00.0","서초구"
"자체","S200307165456431691","체육시설","족구장","예약일시중지","족구 / 반포 / 20년 7월","무료","반포종합운동장","제한없음","http://yeyak.seoul.go.kr/reservation/view.web?rsvsvcid=S200307165456431691","37.5005393518","126.9942640531","2020-06-01 00:00:00.0","2020-07-31 00:00:00.0","2020-06-01 09:00:00.0","2020-07-31 00:00:00.0","서초구"
"자체","S191123120115073272","체육시설","축구장","예약일시중지","2020년 축구장-반포","유료","반포한강공원>축구장","제한없음","http://yeyak.seoul.go.kr/reservation/view.web?rsvsvcid=S191123120115073272","37.51465272997659","127.00493393301383","2019-12-01 00:00:00.0","2020-12-31 00:00:00.0","2019-12-01 00:00:00.0","2020-12-31 00:00:00.0","서초구"
"자체","S200216141926896647","체육시설","다목적경기장","예약일시중지","우면 다목적구장 / 20년 6월","무료","우면체육시설","제한없음","http://yeyak.seoul.go.kr/reservation/view.web?rsvsvcid=S200216141926896647","37.46104631450814","127.02146457355181","2020-05-01 00:00:00.0","2020-06-30 00:00:00.0","2020-05-25 09:00:00.0","2020-06-30 22:00:00.0","서초구"
"자체","S200216142426068052","체육시설","다목적경기장","예약일시중지","우면 다목적구장 / 20년 7월","무료","우면체육시설","제한없음","http://yeyak.seoul.go.kr/reservation/view.web?rsvsvcid=S200216142426068052","37.46104631450814","127.02146457355181","2020-06-01 00:00:00.0","2020-07-31 00:00:00.0","2020-06-02 09:00:00.0","2020-07-31 22:00:00.0","서초구"
"자체","S200218143506438531","체육시설","족구장","예약일시중지","우면 족구장 / 20년 6월 / 1번코트","무료","우면체육시설","제한없음","http://yeyak.seoul.go.kr/reservation/view.web?rsvsvcid=S200218143506438531","37.46104631450814","127.02146457355181","2020-05-01 00:00:00.0","2020-06-30 00:00:00.0","2020-05-25 09:00:00.0","2020-06-30 22:00:00.0","서초구"
"자체","S200218144121459399","체육시설","족구장","예약일시중지","우면 족구장 / 20년 6월 / 2번코트","무료","우면체육시설","제한없음","http://yeyak.seoul.go.kr/reservation/view.web?rsvsvcid=S200218144121459399","37.46104631450814","127.02146457355181","2020-05-01 00:00:00.0","2020-06-30 00:00:00.0","2020-05-25 09:00:00.0","2020-06-30 22:00:00.0","서초구"
"자체","S200218144426125824","체육시설","족구장","예약일시중지","우면 족구장 / 20년 7월 / 1번코트","무료","우면체육시설","제한없음","http://yeyak.seoul.go.kr/reservation/view.web?rsvsvcid=S200218144426125824","37.46104631450814","127.02146457355181","2020-06-01 00:00:00.0","2020-07-31 00:00:00.0","2020-06-02 09:00:00.0","2020-07-31 22:00:00.0","서초구"
"자체","S200218144655409523","체육시설","족구장","예약일시중지","우면 족구장 / 20년 7월 / 2번코트","무료","우면체육시설","제한없음","http://yeyak.seoul.go.kr/reservation/view.web?rsvsvcid=S200218144655409523","37.46104631450814","127.02146457355181","2020-06-01 00:00:00.0","2020-07-31 00:00:00.0","2020-06-02 09:00:00.0","2020-07-31 22:00:00.0","서초구"
"자체","S191117144321111633","체육시설","배구장","예약일시중지","2020년 배구장1-잠원","유료","잠원한강공원>배구장 1","제한없음","http://yeyak.seoul.go.kr/reservation/view.web?rsvsvcid=S191117144321111633","37.52630601598422","127.01745924782314","2019-12-01 00:00:00.0","2020-12-31 00:00:00.0","2019-12-01 00:00:00.0","2020-12-31 00:00:00.0","서초구"
"자체","S191116175758117374","체육시설","농구장","예약일시중지","2020년 농구장1(상류)-반포","유료","반포한강공원>농구장(12)","제한없음","http://yeyak.seoul.go.kr/reservation/view.web?rsvsvcid=S191116175758117374","37.5141274709747","127.0042461844334","2019-12-01 00:00:00.0","2020-12-31 00:00:00.0","2019-12-01 00:00:00.0","2020-12-31 00:00:00.0","서초구"
"자체","S191116180356865336","체육시설","농구장","예약일시중지","2020년 농구장2(상류)-반포","유료","반포한강공원>농구장(12)","제한없음","http://yeyak.seoul.go.kr/reservation/view.web?rsvsvcid=S191116180356865336","37.5141274709747","127.0042461844334","2019-12-01 00:00:00.0","2020-12-31 00:00:00.0","2019-12-01 00:00:00.0","2020-12-31 00:00:00.0","서초구"
"자체","S190502151751379566","체육시설","테니스장","접수중","인재개발원 테니스장(인조잔디 A면) 대관","유료","인재개발원 테니스장","제한없음","http://yeyak.seoul.go.kr/reservation/view.web?rsvsvcid=S190502151751379566","37.481194337398286","127.02343534049716","2019-12-01 00:00:00.0","2020-12-31 00:00:00.0","2020-06-01 09:00:00.0","2020-06-15 18:00:00.0","서초구"
"자체","S190502160848522070","체육시설","테니스장","접수중","인재개발원 테니스장(인조잔디 B면) 대관","유료","인재개발원 테니스장","제한없음","http://yeyak.seoul.go.kr/reservation/view.web?rsvsvcid=S190502160848522070","37.481194337398286","127.02343534049716","2019-12-01 00:00:00.0","2020-12-31 00:00:00.0","2020-06-01 09:00:00.0","2020-06-15 18:00:00.0","서초구"
"자체","S191123115416235490","체육시설","축구장","예약일시중지","2020년 축구장-잠원","유료","잠원한강공원>축구장","제한없음","http://yeyak.seoul.go.kr/reservation/view.web?rsvsvcid=S191123115416235490","37.52562225916921","127.01674072385241","2019-12-01 00:00:00.0","2020-12-31 00:00:00.0","2019-12-01 00:00:00.0","2020-12-31 00:00:00.0","서초구"
"자체","S191117145431870031","체육시설","배구장","예약일시중지","2020년 배구장2-잠원","유료","잠원한강공원>배구장 2","제한없음","http://yeyak.seoul.go.kr/reservation/view.web?rsvsvcid=S191117145431870031","37.52608343395513","127.01769224206873","2019-12-01 00:00:00.0","2020-12-31 00:00:00.0","2019-12-01 00:00:00.0","2020-12-31 00:00:00.0","서초구"
"자체","S191112212932648878","체육시설","배드민턴장","예약일시중지","2020년 배드민턴장1-반포","유료","반포한강공원>배드민턴장(123)","제한없음","http://yeyak.seoul.go.kr/reservation/view.web?rsvsvcid=S191112212932648878","37.51425720892842","127.00443225973201","2019-12-01 00:00:00.0","2020-12-31 00:00:00.0","2019-12-01 00:00:00.0","2020-12-31 00:00:00.0","서초구"
"자체","S191112213503586433","체육시설","배드민턴장","예약일시중지","2020년 배드민턴장2-반포","유료","반포한강공원>배드민턴장(123)","제한없음","http://yeyak.seoul.go.kr/reservation/view.web?rsvsvcid=S191112213503586433","37.51425720892842","127.00443225973201","2019-12-01 00:00:00.0","2020-12-31 00:00:00.0","2019-12-01 00:00:00.0","2020-12-31 00:00:00.0","서초구"
"자체","S191112213959055146","체육시설","배드민턴장","예약일시중지","2020년 배드민턴장3-반포","유료","반포한강공원>배드민턴장(123)","제한없음","http://yeyak.seoul.go.kr/reservation/view.web?rsvsvcid=S191112213959055146","37.51425720892842","127.00443225973201","2019-12-01 00:00:00.0","2020-12-31 00:00:00.0","2019-12-01 00:00:00.0","2020-12-31 00:00:00.0","서초구"
"자체","S200307155558824759","체육시설","축구장","예약일시중지","양재 축구 / 20년 6월 / 평일","유료","양재근린공원 축구장","제한없음","http://yeyak.seoul.go.kr/reservation/view.web?rsvsvcid=S200307155558824759","37.47191609856271","127.04173706084738","2020-05-02 00:00:00.0","2020-06-30 00:00:00.0","2020-05-25 09:00:00.0","2020-06-30 18:00:00.0","서초구"
"자체","S200307161025565370","체육시설","축구장","예약일시중지","양재 축구 / 20년 6월 / 주말 ","유료","양재근린공원 축구장","제한없음","http://yeyak.seoul.go.kr/reservation/view.web?rsvsvcid=S200307161025565370","37.47191609856271","127.04173706084738","2020-05-02 00:00:00.0","2020-06-30 00:00:00.0","2020-05-25 09:00:00.0","2020-06-30 18:00:00.0","서초구"
"자체","S200307162159255915","체육시설","축구장","예약일시중지","양재 축구 / 20년 7월 / 평일","유료","양재근린공원 축구장","제한없음","http://yeyak.seoul.go.kr/reservation/view.web?rsvsvcid=S200307162159255915","37.47191609856271","127.04173706084738","2020-06-02 00:00:00.0","2020-07-31 00:00:00.0","2020-06-02 09:00:00.0","2020-07-31 18:00:00.0","서초구"
"자체","S200307162428505527","체육시설","축구장","예약일시중지","양재 축구 / 20년 7월 / 주말 ","유료","양재근린공원 축구장","제한없음","http://yeyak.seoul.go.kr/reservation/view.web?rsvsvcid=S200307162428505527","37.47191609856271","127.04173706084738","2020-06-02 00:00:00.0","2020-07-31 00:00:00.0","2020-06-02 09:00:00.0","2020-07-31 18:00:00.0","서초구"
"자체","S191116184432793063","체육시설","농구장","예약일시중지","2020년 농구장1-잠원","유료","잠원한강공원>농구장(1234)","제한없음","http://yeyak.seoul.go.kr/reservation/view.web?rsvsvcid=S191116184432793063","37.52606005936199","127.01734493054098","2019-12-01 00:00:00.0","2020-12-31 00:00:00.0","2019-12-01 00:00:00.0","2020-12-31 00:00:00.0","서초구"
"자체","S191117135545799309","체육시설","농구장","예약일시중지","2020년 농구장2-잠원","유료","잠원한강공원>농구장(1234)","제한없음","http://yeyak.seoul.go.kr/reservation/view.web?rsvsvcid=S191117135545799309","37.52606005936199","127.01734493054098","2019-12-01 00:00:00.0","2020-12-31 00:00:00.0","2019-12-01 00:00:00.0","2020-12-31 00:00:00.0","서초구"
"자체","S191117140054284670","체육시설","농구장","예약일시중지","2020년 농구장3-잠원","유료","잠원한강공원>농구장(1234)","제한없음","http://yeyak.seoul.go.kr/reservation/view.web?rsvsvcid=S191117140054284670","37.52606005936199","127.01734493054098","2019-12-01 00:00:00.0","2020-12-31 00:00:00.0","2019-12-01 00:00:00.0","2020-12-31 00:00:00.0","서초구"
"자체","S191117140557559034","체육시설","농구장","예약일시중지","2020년 농구장4-잠원","유료","잠원한강공원>농구장(1234)","제한없음","http://yeyak.seoul.go.kr/reservation/view.web?rsvsvcid=S191117140557559034","37.52606005936199","127.01734493054098","2019-12-01 00:00:00.0","2020-12-31 00:00:00.0","2019-12-01 00:00:00.0","2020-12-31 00:00:00.0","서초구"
"자체","S151223153002877769","체육시설","축구장","접수종료","인재개발원 축구장 대관","유료","인재개발원>축구장","제한없음","http://yeyak.seoul.go.kr/reservation/view.web?rsvsvcid=S151223153002877769","","","2019-12-01 00:00:00.0","2020-12-31 00:00:00.0","2020-06-01 09:00:00.0","2020-06-05 18:00:00.0","서초구"