"서비스구분","서비스ID","대분류명","소분류명","서비스상태","서비스명","결제방법","장소명","서비스대상","바로가기URL","장소X좌표","장소Y좌표","서비스개시시작일시","서비스개시종료일시","접수시작일시","접수종료일시","지역명"
"자체","S180912160125353420","진료","은평병원","접수중","은평병원 소아청소년정신건강의학과 초기진료 예약 서비스","무료","은평병원","제한없음어린이(청소년)","http://yeyak.seoul.go.kr/reservation/view.web?rsvsvcid=S180912160125353420","37.59396972159662","126.92321081538102","2018-10-22 00:00:00.0","2020-12-31 00:00:00.0","2018-10-22 00:00:00.0","2020-12-31 23:59:00.0","은평구"
"자체","S191231171415067470","진료","서북병원","접수중","외과 진료예약","유료(요금안내문의)","서울특별시서북병원","제한없음","http://yeyak.seoul.go.kr/reservation/view.web?rsvsvcid=S191231171415067470","37.604358038308874","126.90566491337405","2020-01-01 00:00:00.0","2020-12-31 00:00:00.0","2020-01-01 09:00:00.0","2020-12-31 17:00:00.0","은평구"
"자체","S191231171833224231","진료","서북병원","접수종료","치과 진료예약","유료(요금안내문의)","서울특별시서북병원","제한없음","http://yeyak.seoul.go.kr/reservation/view.web?rsvsvcid=S191231171833224231","37.604358038308874","126.90566491337405","2020-01-01 00:00:00.0","2020-12-31 00:00:00.0","2019-12-31 09:00:00.0","2019-12-31 17:00:00.0","은평구"
"자체","S191231172407949688","진료","서북병원","접수중","가정의학과 진료예약(예방접종예약불가)","유료(요금안내문의)","서울특별시서북병원","제한없음","http://yeyak.seoul.go.kr/reservation/view.web?rsvsvcid=S191231172407949688","37.604358038308874","126.90566491337405","2020-01-01 00:00:00.0","2020-12-31 00:00:00.0","2020-01-01 09:00:00.0","2020-12-31 17:00:00.0","은평구"
"자체","S191231172714061988","진료","서북병원","접수중","내과 진료예약(예방접종예약불가)","유료(요금안내문의)","서울특별시서북병원","제한없음","http://yeyak.seoul.go.kr/reservation/view.web?rsvsvcid=S191231172714061988","37.604358038308874","126.90566491337405","2020-01-01 00:00:00.0","2020-12-31 00:00:00.0","2020-01-01 09:00:00.0","2020-12-31 17:00:00.0","은평구"
"자체","S191231173118587793","진료","서북병원","접수중","흉부외과 진료예약","유료(요금안내문의)","서울특별시서북병원","제한없음","http://yeyak.seoul.go.kr/reservation/view.web?rsvsvcid=S191231173118587793","37.604358038308874","126.90566491337405","2020-01-01 00:00:00.0","2020-12-31 00:00:00.0","2020-01-01 09:00:00.0","2020-12-31 17:00:00.0","은평구"
"자체","S191231173340451528","진료","서북병원","접수중","흉부내과 진료예약","유료(요금안내문의)","서울특별시서북병원","제한없음","http://yeyak.seoul.go.kr/reservation/view.web?rsvsvcid=S191231173340451528","37.604358038308874","126.90566491337405","2020-01-01 00:00:00.0","2020-12-31 00:00:00.0","2020-01-01 09:00:00.0","2020-12-31 17:00:00.0","은평구"
"자체","S191231173637507219","진료","서북병원","접수중","신경과 진료예약","유료(요금안내문의)","서울특별시서북병원","제한없음","http://yeyak.seoul.go.kr/reservation/view.web?rsvsvcid=S191231173637507219","37.604358038308874","126.90566491337405","2020-01-01 00:00:00.0","2020-12-31 00:00:00.0","2020-01-01 09:00:00.0","2020-12-31 17:00:00.0","은평구"