"새주소","지번주소","좌표정보","좌표정보","테마코드","콘텐츠 코드","언어셋(KOR : 국문, ENG : 영문, JP : 일문, CHA : 중문-간체, CHB : 중문-번체)","콘텐츠 명","시도명(텍스트)","구명","동명","산지여부","주 번지","부 번지","기타주소","전화번호","상세정보 값 1","상세정보 값 2","상세정보 값 3","상세정보 값 4","상세정보 값 5","상세정보 값 6","상세정보 값 7","상세정보 값 8","상세정보 값 9","상세정보 값 10","상세정보 값 11","상세정보 값 12","상세정보 값 13","상세정보 값 14","상세정보 값 15","상세정보 값 16","상세정보 값 17","상세정보 값 18","상세정보 값 19","상세정보 값 20","상세정보 이름 1","상세정보 이름 2","상세정보 이름 3","상세정보 이름 4","상세정보 이름 5","상세정보 이름 6","상세정보 이름 7","상세정보 이름 8","상세정보 이름 9","상세정보 이름 10","상세정보 이름 11","상세정보 이름 12","상세정보 이름 13","상세정보 이름 14","상세정보 이름 15","상세정보 이름 16","상세정보 이름 17","상세정보 이름 18","상세정보 이름 19","상세정보 이름 20","좌표데이터","좌표 타입 (1:Point 3:Polyline 4:MultiPolyline 5:Polygon 6:MultiPolygon 8:multiPoint)","선 두께 1~10","테마 선 색상","키워드","등록일","수정일"
"북촌로5길 48","종로구 화동 2","126.983284900","37.581430800","100228","SeoulLiter_001","KOR","성삼문 집터","","종로구","화동","","2","","","","성삼문 집터","성삼문(1418~1456)은 단종의 복위사건으로 처형당한 조선왕조의 대표적인 충신이다. 집현전의 학자로 세종대왕의 훈민정음 창제에 큰 역할을 했으며 특히 성삼문의 시조는 지금까지도 많은 사람들에게 읽혀지고 있다.   '이 몸이 죽어가서 무엇이 될고 하니 봉래산 제일봉에 낙락장송 되얏다가  백설이 만건곤할 제 독야청청하리라'  - 성삼문 「충의가」 전문","","종로구 북촌로5길 48 (정독도서관 마당에 위치)","지하철 3호선 안국역 1번 출구 도보로 10분   - 마을버스: '종로11' 정독도서관 입구(국립민속박물관 앞) 하차","","서울문학지도  |  서울시 문화예술과 (02-2133-2561)","","","","","","","","","","","","","","명칭","개요","","위치","교통편","","출처","","","","","","","","","","","","","","","1","4","#0000FF","","2015-10-07 16:45:20.0","2015-10-07 17:11:01.0"
"도봉로136나길 40","도봉구 창동 820","127.044809000","37.656225000","100228","SeoulLiter_045","KOR","벽초 홍명희 집터","","도봉구","창동","","820","","","","벽초 홍명희 집터","역사 소설「임꺽정」의 작가로 잘 알려져 있는 벽초 홍명희(1888~1968)는 중일 전쟁 후에 일제의 탄압이 심하자 1939년 창동리로 이주했다. 충북 괴산의 대지주였지만 독립운동으로 재산을 잃고 이곳에서 매우 가난하게 살았다. 이곳에서 5년 동안 살면서 일제의 회유에도 광복될 때까지 신간회 창립에 관여하는 등 사회운동에 앞장섰으며 광복 후에는 월북했다.","","","도봉구 창동 820번지 신도브래뉴아파트 103동 자리","","서울문학지도  |  서울시 문화예술과 (02-2133-2561)","","","","","","","","","","","","","","명칭","개요","","","위치","","출처","","","","","","","","","","","","","","","1","4","#0000FF","","2015-10-07 16:45:21.0","2015-10-08 14:34:23.0"
"종로 1","종로구 종로1가 1","126.977865200","37.571427200","100228","SeoulLiter_016","KOR","박인환 집터","","종로구","종로1가","","1","","","","박인환 집터","1948년에 박인환은 ‘마리서사’를 폐업하고 김규동 김수영 양병식과 함께 동인지 《신시론》를 내고 5월에는 덕수궁에서 이정숙과 혼인을 했다. 1949년 김경린. 임호권. 박인환. 양명식 등의 합동 시집인 『새로운 도시와 시민들의 합창』을 발간하였으며 1956년 ‘이상추모의 밤’을 개최한 후인 ３월 20일 오후 ９시에 심장마비로 세상을 떠났다. 박인환 시인이 결혼하고 세상을 떠날 때까지 살았던 집터이다.","","","종로구 종로 1 (광화문 교보빌딩 주차장 입구)","지하철 5호선 광화문역 3번 출구 교보빌딩 뒤편 주차장","서울문학지도  |  서울시 문화예술과 (02-2133-2561)","","","","","","","","","","","","","","명칭","개요","","","위치","교통편","출처","","","","","","","","","","","","","","","1","4","#0000FF","","2015-10-07 16:45:21.0","2015-10-07 17:27:23.0"
"북촌로5길 48","종로구 화동 2","126.983508100","37.581098300","100228","SeoulLiter_002","KOR","김옥균 집터","","종로구","화동","","2","","","","김옥균 집터","김옥균(1851~1894)은 조선 후기의 사상가이며 문인이다. 갑신정변(1884)을 주도했으나 실패하고 일본에서 10년간 망명생활을 하다가 상하이에서 홍종우에게 암살당했다. 어려서부터 학문뿐만 아니라 문장?시?글씨?그림?음악 등 예술에 뛰어난 재능을 가지고 있었던 것으로 잘 알려져 있으며 저서로는 <기화근사 箕和近事> <치도약론 治道略論> <갑신일록 甲申日錄>이 있으며 그 외 여러 편의 한시를 남겼다.","","종로구 북촌로5길 48 (정독도서관 마당에 위치)","지하철 3호선 안국역 1번 출구 도보로 10분   - 마을버스: '종로11' 정독도서관 입구(국립민속박물관 앞) 하차","","서울문학지도  |  서울시 문화예술과 (02-2133-2561)","","","","","","","","","","","","","","명칭","개요","","위치","교통편","","출처","","","","","","","","","","","","","","","1","4","#0000FF","","2015-10-07 16:45:20.0","2015-10-07 17:12:23.0"
"북촌로11길 76","종로구 삼청동 35-35","126.983433096","37.584019567","100228","SeoulLiter_003","KOR","맹사성 집터","","종로구","삼청동","","35","35","","","맹사성 집터","맹사성(1360~1438)은 세종 때 좌의정을 역임하면서 '강호사시사'를 지었던 문인이다. 호는 고불(古佛)이며 시호는 문정공이다. 「강호사시사」는 우리나라 최초의 연시조로 맹사성이 벼슬을 내놓고 강호에 묻힌 자신의 생활을 사시사철 자연의 변화와 함께 노래한 것이다.   '강호에 봄이 드니 미친 흥이 절로 난다.  탁료 계변에 금린어 안쥐로다.  이 몸이 한가해움도 역군은이샷다.'   - 강호사시가 1수 (봄)","","종로구 북촌로11길 76","지하철 3호선 안`국역 2번 출구 약 700m   - 안국역 2번 출구 앞에서 2번 환승 믿음치과 앞에서 하차 2분 거리","","서울문학지도  |  서울시 문화예술과 (02-2133-2561)","","","","","","","","","","","","","","명칭","개요","","위치","교통편","","출처","","","","","","","","","","","","","","","1","4","#0000FF","","2015-10-07 16:45:20.0","2015-10-07 16:45:20.0"
"창덕궁길 164","종로구 계동 1","126.986782000","37.583954500","100228","SeoulLiter_004","KOR","서정주 시비 '국화 옆에서'","","종로구","계동","","1","","","","서정주 시비 '국화 옆에서'","서정주(1915~2000) 시인의 대표시(국화 옆에서)를 새긴 시비는 중앙고 동문인 시인을 기념하고자 교정에 세워지게 되었다. 중앙고에는 서정주뿐만 아니라 중앙고 출신인 이상화 시비 채만식 문학비가 세워져 있기도 하다.  '한 송이 국화꽃을 피우기 위해  봄부터 소쩍새는 그렇게 울었나 보다.  한 송이 국화꽃을 피우기 위해 천둥은 먹구름 속에서  또 그렇게 울었나 보다.'   - 서정주 시인의 시 「국화 옆에서」 중에서","","종로구 창덕궁길 164 (중앙고 교정에 위치)","지하철 3호선 안국역 2번 출구  - 마을버스 01번 중앙고 하차","","서울문학지도  |  서울시 문화예술과 (02-2133-2561)","","","","","","","","","","","","","","명칭","개요","","위치","교통편","","출처","","","","","","","","","","","","","","","1","4","#0000FF","","2015-10-07 16:45:20.0","2015-10-07 17:18:46.0"
"창덕궁길 164","종로구 계동 1","126.987211100","37.583647200","100228","SeoulLiter_005","KOR","이상화 시비 '빼앗긴 들에도 봄은 오는가'","","종로구","계동","","1","","","","이상화 시비 '빼앗긴 들에도 봄은 오는가'","이상화(1902~1943) 시인이 일제강점기 민족의 울분을 담아 한 편의 위대한 시를 탄생시키니 그 시가 바로 「빼앗긴 들에도 봄은 오는가」이다. 시는 누군가의 간절하고 절박한 생각을 언어로 함축하여 표현한 문학이다. 시인이 사회적인 상황에 민감한 것은 바로 이런 이유에서다.  이 시를 읽으면 민족 독립의 소중함을 새삼 확인하게 된다. 이 시는 그 당시 우리 민족의 상황과 정서를 잘 표현한 시다.","","","종로구 창덕궁길 164 (중앙고 교정에 위치)","지하철 3호선 안국역 2번 출구  - 마을버스 01번 중앙고 하차","서울문학지도  |  서울시 문화예술과 (02-2133-2561)","","","","","","","","","","","","","","명칭","개요","","","위치","교통편","출처","","","","","","","","","","","","","","","1","4","#0000FF","","2015-10-07 16:45:20.0","2015-10-07 17:17:29.0"
"창덕궁길 164","종로구 계동 1","126.986945000","37.583635200","100228","SeoulLiter_006","KOR","채만식 문학비","","종로구","계동","","1","","","","채만식 문학비","채만식(1902~1950)은 1930년대 일제강점기의 사회 상황을 잘 표현한 작가다. 그의 대표 작품 「탁류」에는 당시의 사회상이 잘 담겨있다. 「탁류」는 1937년 10월 13일부터 1938년 5월 17일까지 <조선일보>에 연재된 장편소설로 일제식민지의 열악한 경제적인 상황에 직면한 사람들의 살기 위한 몸부림을 통해 당시 사회상을 엿볼 수 있게 한다.","","","종로구 창덕궁길 164 (중앙고 교정에 위치)","지하철 3호선 안국역 2번 출구  - 마을버스 01번 중앙고 하차","서울문학지도  |  서울시 문화예술과 (02-2133-2561)","","","","","","","","","","","","","","명칭","개요","","","위치","교통편","출처","","","","","","","","","","","","","","","1","4","#0000FF","","2015-10-07 16:45:20.0","2015-10-07 17:19:31.0"
"효자로 33","종로구 통의동 2-1","126.973603046","37.579037185","100228","SeoulLiter_007","KOR","보안여관 - 동인지 '시인부락'의 산실","","종로구","통의동","","2","1","","02-720-8409","보안여관 - 동인지 '시인부락'의 산실","경복궁의 서쪽 문인 영추문 건너편에 지금 시대와 어울리지 않는 예스러운 간판이 부착된 건물이 있다. 바로 보안여관이다. 이 집은 서정주 시인과 오장환이 주도했던 문학지 <시인부락>의 산실로 일제강점기와 해방 이후까지 지방의 작가들이 서울에서 자리를 잡기 전에 장기 투숙을 하던 장소였다. 이곳에서 숙박하며 원고를 쓰고 할 일을 찾아 아침이면 길을 나섰다. 현재는 숙박업소로 운영되지는 않고 '일맥문화재단'이 인수하여 외형을 그대로 두고 내부를 전시실로 꾸며 문화공간으로 만들었다.","","","종로구 효자로 33","지하철 3호선 경복궁역 4번 출구 40m에서 좌회전 효자로 청와대 방향으로 약 200m 지점 영추문 건너편에 위치한 2층 건물","서울문학지도  |  서울시 문화예술과 (02-2133-2561)","","","","","","","","","","","","","","명칭","개요","","","위치","교통편","출처","","","","","","","","","","","","","","","1","4","#0000FF","","2015-10-07 16:45:20.0","2015-10-07 16:45:20.0"
"자하문로7길 18","종로구 통인동 154-10","126.970850934","37.578639905","100228","SeoulLiter_008","KOR","작가 이상 집터","","종로구","통인동","","154","10","","","작가 이상 집터","이상(1910~1937)이 3살 때부터 23세까지 살았던 집터이다. 27세에 세상을 떠났으니 그의 생애 대부분을 이 집터에서 살았다고 해도 과언이 아니다. 1932년 이상은 이 집을 매각한 돈으로 '제비다방'을 운영하기도 했다. 현재의 집은 이상의 집을 헐고 지은 한옥이라 집터라고 부르는 것이 맞다. 문화유산국민신탁과 아름지기 재단에서 재정을 후원하여 '문화공간 이상'의 프로젝트로 옛 모습의 일부가 복원되기도 했다. 이상의 본명은 김해경(金海卿)이며 이태준 박태원 김기림 정지용 등과 구인회의 일원으로 문단활동을 하였으며 다방과 카페 등을 경영하였으나 실패했다. 1936년 일본으로 건너갔지만 사상이 불온하다는 혐의로 구속되었으며 건강 악화로 출소된 후 사망했다.","","","종로구 자하문로7길 18","지하철 3호선 경복궁역 2번 출구 약 200m 거리에 있는 '우리은행' 입구 좌측 골목 (자하문7길) 70m 지점","서울문학지도  |  서울시 문화예술과 (02-2133-2561)","","","","","","","","","","","","","","명칭","개요","","","위치","교통편","출처","","","","","","","","","","","","","","","1","4","#0000FF","","2015-10-07 16:45:20.0","2015-10-07 16:45:20.0"
"필운대로 26-21","종로구 누하동 225-1","126.969387497","37.578771722","100228","SeoulLiter_009","KOR","노천명 집터","","종로구","누하동","","225","1","","","노천명 집터","1949년부터 1957년까지 양녀와 함께 살았던 곳이지만 지금은 가정집이라 탐방이 불가능하다. 노천명(1912~1957) 시인은 황해도 장연 출신이며 평생을 독신으로 살면서 시 '사슴'을 비롯한 고독과 서정성이 있는 시를 많이 썼다. 1920년 부친이 사망하자 서울로 이사하여 진명고보와 이화여전 영문과를 졸업하고 1935년 <시원> 창간호에 「내 청춘의 배는」을 발표하여 문단에 등단했다. 1938년 펴낸 시집 「산호림」에 대표시 「사슴」이 수록되어 있다.","","","종로구 필운대로 26-21","","서울문학지도  |  서울시 문화예술과 (02-2133-2561)","","","","","","","","","","","","","","명칭","개요","","","위치","","출처","","","","","","","","","","","","","","","1","4","#0000FF","","2015-10-07 16:45:20.0","2015-10-07 16:45:20.0"
"필운대로1길 34","종로구 필운동 12","126.966839018","37.578325507","100228","SeoulLiter_010","KOR","백사 이항복 집터 - 필운대(弼雲臺)","","종로구","필운동","","12","","","02-724-0300","백사 이항복 집터 - 필운대(弼雲臺)","광해군은 외교적 역량은 있었으나 당파싸움이 치열해지면서 판단이 흐려져 이복형제를 죽이고 인목대비를 폐비한다. 이항복은 죽음을 무릅쓰고 이를 반대하다가 63세의 노구를 이끌고 북청으로 유배를 떠나야 했다. 필운대의 필운(弼雲)은 이항복(李恒福 1556~1618)의 호다. 배화여고 본관 뒤뜰 급경사가 진 바위에 이항복의 후손인 이유원(李裕元 1814~1888)이 쓴 다음과 같은 글이 있어 백사 이항복의 집터임을 증명한다.","'<我祖舊居後裔尋 蒼松石壁白雲深. 遺風不盡百年久 父老衣冠古亦今>  나의 할아버지 살았던 옛집에 후손이 찾아왔더니 푸른 바위에는 흰 구름이 걸렸구나. 풍속이 백년토록 전해오나니 옛 노인들의 의관이 지금껏 그 흔적을 남겼네  '계유월성이유원제(癸酉月城李裕元題) 백사선생필운대(白沙先生弼雲臺)''","","종로구 필운대로1길 34","배화여고 교무실에 사전 승인 후 탐방 가능","서울문학지도  |  서울시 문화예술과 (02-2133-2561)","","","","","","","","","","","","","","명칭","개요","관련 작품","","위치","참고사항","출처","","","","","","","","","","","","","","","1","4","#0000FF","","2015-10-07 16:45:20.0","2015-10-07 16:45:20.0"
"옥인길 57","종로구 누상동 9번지","126.965656546","37.581440811","100228","SeoulLiter_011","KOR","윤동주 하숙집터","","종로구","누상동","","9번지","","","","윤동주 하숙집터","1941년 연희전문학교에 재학 중이던 윤동주는 자신이 존경했던 소설가 김 송(1909~1988)댁에서 후배인 정병욱과 하숙생활을 했는데 그는 후에 그 때를 가장 행복한 시절로 회상하기도 했다. 수성동계곡 입구의 종로구 누상동 9번지에 있는 곳을 찾아 가면 당시 집은 사라지고 빌라를 보게 되는데 그 담벼락에 <윤동주 하숙집터>라는 동판이 부착되어 있을 뿐이다. 대표 시 「별 헤는 밤」과 「자화상」이 그가 이곳에 살 때 쓴 시다.","","","종로구 옥인길 57","지하철 3호선 경복궁역 3번 출구   - 마을버스 9번 탑승 박노수미술관 앞에서 하차 수성동계곡방향 언덕길 50m 지점 왼쪽 담에 ‘윤동주시인하숙터’ 동판 부착되어 있는 빌라","서울문학지도  |  서울시 문화예술과 (02-2133-2561)","","","","","","","","","","","","","","명칭","개요","","","위치","교통편","출처","","","","","","","","","","","","","","","1","4","#0000FF","","2015-10-07 16:45:20.0","2015-10-07 16:45:20.0"
"인사동길 31","종로구 관훈동 197-1","126.985601437","37.573384249","100228","SeoulLiter_012","KOR","이율곡 집터","","종로구","관훈동","","197","1","","","이율곡 집터","이율곡(1536~1584)은 강릉 오죽헌에서 태어났으며 부친은 이원수 모친은 신사임당이다.  13세 때(1548년) 진사 초시에 장원급제한 조선의 문인으로 한양에서 벼슬살이 할 때 살았던 집터가 종로구 관훈동에 있다.  풍수적으로 독녀혈 지형이라는 터에는 300살이 넘은 회화나무가 서 있는데 8세 때에 쓴 한시를 읽어보면 그의 천재성을 확인할 수 있다.","'林亭秋已晩(임정추이만) 숲 속의 정자에 가을이 벌써 저물어가니  騷客意無窮(소객의무궁) 시인의 시상이 끝없이 일어나네. 遠水連天碧(원수연천벽) 멀리 보이는 저 물빛은 하늘에 이어져 푸르고 霜楓向日紅(상풍향일홍) 서리맞은 단풍은 햇볕을 받아 붉구나. 山吐孤輪月(산토고윤월) 산은 외롭게 생긴 둥근 달을 토해 내고 江含萬里風(강함만리풍) 강은 만리에서 불어오는 바람을 머금었네. 塞鴻何處去(새홍하처거) 변방에서 날아오는 기러기는 어디로 가는가 聲斷暮雲中(성단모운중) 울음 소리 석양의 구름 속에 끊어지네.'   이율곡(李栗谷) 「화석정(花石亭)」 전문","","종로구 인사동길 31","지하철 5호선 종로3가역 6번 출구 인사동길로 진입 100m 우측 백상빌딩 옆에 위치","서울문학지도  |  서울시 문화예술과 (02-2133-2561)","","","","","","","","","","","","","","명칭","개요","관련 작품","","위치","교통편","출처","","","","","","","","","","","","","","","1","4","#0000FF","","2015-10-07 16:45:20.0","2015-10-07 16:45:20.0"
"삼봉로 33","종로구 수송동 146-2","126.979249770","37.572908867","100228","SeoulLiter_013","KOR","정도전 집터","","종로구","수송동","","146","2","","","정도전 집터","서울 종로구청 자리는 옛 정도전의 집터다.  조선 건국의 아버지라 불리는 정도전(1342~1398)은 서양사에서 마키아벨리와 비교될 수 있는 인물로 고려왕조의 멸망이 곧 백성을 살리는 길이라고 믿었기에 역성혁명을 주도했다.  성리학적인 통치이념을 근본으로 삼았지만 그의 사상의 뿌리에는 맹자사상이 깊게 자리잡고 있다. 삼국시대부터 조선 중기까지 590명의 문인들의 작품들이 수록되어 있는 문학전집인 <동문선>에는 정도전의 글 77편과 시 20여 편이 게재되어 있어 뛰어난 문인으로서의 모습도 엿볼 수 있다.","","","종로구 삼봉로 43 종로구청","지하철 1호선 종각역 1번 출구/5호선 광화문역 2번 출구 종로구청 정문 우측에 <삼봉 정도전 집터> 표지석","서울문학지도  |  서울시 문화예술과 (02-2133-2561)","","","","","","","","","","","","","","명칭","개요","","","위치","교통편","출처","","","","","","","","","","","","","","","1","4","#0000FF","","2015-10-07 16:45:20.0","2015-10-07 16:45:20.0"
"인사동5길 41","종로구 공평동 1","126.984134476","37.571784719","100228","SeoulLiter_014","KOR","민영환 자결터","","종로구","공평동","","1","","","","민영환 자결터","종로구 인사동 하나투어 사옥 앞 민영환(1861~1905) 자결터에는 추모비가 세워져 있다. 1878년 문과의 병과에 급제하고 성균관 대사성에 발탁된 민영환은 조선의 운명이 풍전등화처럼 위태로울 때에 2차례의 해외여행으로 견문을 넓혀 고종에게 개혁정책을 권하면서 나라의 변화를 선도하려고 분투했다. 1905년 을사늑약으로 조선의 운명이 기울자 자결로 일제에 강력하게 항거하며 생을 마감했다. 그의 죽음은 매천 황현 같은 시인들에게 강렬한 인상을 남겼다.","","","종로구 인사동 5길 41","지하철 1호선 종각역 (3-1번 또는 3번 출구) 종각 사거리 우회전 후 공평빌딩 우측 하나투어빌딩 앞에 위치","서울문학지도  |  서울시 문화예술과 (02-2133-2561)","","","","","","","","","","","","","","명칭","개요","","","위치","교통편","출처","","","","","","","","","","","","","","","1","4","#0000FF","","2015-10-07 16:45:20.0","2015-10-07 16:45:20.0"
"종로 1","종로구 종로1가 1","126.978400100","37.570566100","100228","SeoulLiter_015","KOR","염상섭 동상","","종로구","종로1가","","1","","","","염상섭 동상","1920년 《폐허》 창간 동인으로 문학 활동을 시작했으며 1960년대 초까지 인간 삶의 현장을 세밀하게 사실주의적 기법으로 표현한 작가 염상섭(1897~1963)의 동상은 광화문 교보빌딩 뒤편에 있다. 양복을 입고 벤치에 앉은 염상섭의 생전 모습을 형상화한 모습이 이색적이다. 1996년 한국 근대문학의 대표적인 인물로 선정되면서 종묘공원에 설치되었다가 삼청공원을 거쳐 2014년 4월에 대산문화재단의 후원으로 현재의 위치에 자리하게 되었다. 대표작으로 「표본실의 청개구리」와 「삼대」등이 있으며 호는 제월(霽月)과 횡보(橫步)이다.","","","종로구 종로 1 (광화문 교보빌딩 뒤편)","지하철 5호선 광화문역 3번 출구 교보빌딩","서울문학지도  |  서울시 문화예술과 (02-2133-2561)","","","","","","","","","","","","","","명칭","개요","","","위치","교통편","출처","","","","","","","","","","","","","","","1","4","#0000FF","","2015-10-07 16:45:21.0","2015-10-07 17:24:35.0"
"대학로 128","종로구 동숭동 1-33","127.002365000","37.582840400","100228","SeoulLiter_017","KOR","김광균 시비","","종로구","동숭동","","1","33","","","김광균 시비","김광균(1914~1993)은 개성출신으로 모더니즘 시 운동의 정착에 공헌한 시인이다. 일제강점기에 그는 송도상업학교를 졸업하고 군산과 용산 등에서 공장 사원으로 일하면서 시를 썼다. 1926년 〈중외일보〉에 「가는 누님」을 발표하여 문단에 등단한다. 1936년에 서정주 오장환 등과 함께 《시인부락》 동인 1937년 《자오선》 동인으로 활동한다. 1939년에 초기에 쓴 시 27편을 모아 제 1시집 『와사등』을 펴냈다. 8?15해방 후 조선문학가동맹에 이념 대립을 지양하는 ‘제3문학론’을 표방하기도 하였다. 8?15해방 이전까지 쓴 시 19편을 모아 제 2시집 『기항지』(1947)를 출간한다.","'어느 머언 곳의 그리운 소식이기에 이 한밤 소리없이 흩날리느뇨 처마끝에 호롱불 여위여 가며 서글픈 옛 자취인 양 흰 눈이 내려 하이얀 입김 절로 가슴이 메어 마음 허공에 등불을 켜고 내 홀로 밤 깊어 뜰에 내리면'  김광균 시인의 시 「설야」 중에서","","종로구 대학로 128","지하철 4호선 혜화역 2번 출구 혜화동로타리 방향으로 70m 하트약국 앞","서울문학지도  |  서울시 문화예술과 (02-2133-2561)","","","","","","","","","","","","","","명칭","개요","관련 작품","","위치","교통편","출처","","","","","","","","","","","","","","","1","4","#0000FF","","2015-10-07 16:45:21.0","2015-10-07 17:35:40.0"
"대학로 128","종로구 동숭동 1-33","127.002484300","37.581927900","100228","SeoulLiter_018","KOR","함석헌 시비","","종로구","동숭동","","1","33","","","함석헌 시비","함석헌(1901~1989)은 틀에 박힌 고정된 인물이 아니었다. 진리와 정의를 위해 몸과 마음을 바친 구도자적 인물이고 시대의 부름에 따라 살고자 모든 전통과 교리의 속박을 깨뜨린 자유인이었다. 그는 깊게는 종교적 믿음과 넓게는 사회적 실천의 일치를 추구했으며 믿음과 행동 생각과 삶이 일치된 보기 드문 지행합일의 인물이었다. 동서양의 문명과 사상을 창조적으로 통섭하고 융합하는 삶과 정신을 평생 추구하며 독창적인 민족사상가이면서 동시에 온 세계를 끌어안은 세계인이었다. 200여 편 이상의 시를 쓴 시인이며 대학로의 「그 사람을 가졌는가」 시비는 2001년 ‘함석헌 기념사업회’가 세웠으며 시비 글씨는 김양동이 썼다.","","","종로구 대학로 128","지하철 4호선 혜화역 2번 출구 혜화동로타리 방향으로 70m 하트약국 앞","서울문학지도  |  서울시 문화예술과 (02-2133-2561)","","","","","","","","","","","","","","명칭","개요","","","위치","교통편","출처","","","","","","","","","","","","","","","1","4","#0000FF","","2015-10-07 16:45:21.0","2015-10-07 17:36:33.0"
"대학로 128","종로구 동숭동 1-33","127.002536600","37.582581600","100228","SeoulLiter_019","KOR","타고르(RTagore) 흉상과 시비 '동방의 등불'","","종로구","동숭동","","1","33","","","타고르(RTagore) 흉상과 시비 '동방의 등불'","흉상과 시비 제작은 2006년 당시 인도의 대통령 압둘 칼람(Abdul Kalam)의 방한 때부터 추진되어 왔는데 타고르의 탄생 150주년을 기념하여 2011년 5월 18일 대학로에 세워졌다. 타고르(Rabindranath Tagore)는 1861년 5월 7일 인도 캘커타 출생으로 1913년 노벨문학상을 받았으며 인도 문학의 정수를 서양에 소개하는데 지대한 공헌을 했다. 1929년 〈동아일보〉창간 10주년을 기념하여 타고르가 쓴 「동방의 등불」이라는 시는 인도의 시인 타고르를 우리나라 사람들에게 각인되게 만들었다. 동아일보에 발표 당시부터 우리 민족에게 큰 희망을 주었기에 읽지 않은 사람이 없었을 정도였는데 그만큼 조국을 빼앗긴 한 국민에게 큰 감동을 주었기 때문이다. 그토록 우리에게 희망을 주었던 타고르의 시 「동방의 등불」 시비와 타고르의 흉상이 혜화동 대학로 한복판에 서 있다.","'일찍이 아시아의 황금시기에 빛나던 등불의 하나인 코리아 그 등불 다시 한 번 켜지는 날에 너는 동방의 밝은 빛이 되리라'  -타고르 「동방의 등불」 중에서","","종로구 대학로 128","지하철 4호선 혜화역 2번 출구 혜화동로타리 방향으로 70m 하트약국 앞","서울문학지도  |  서울시 문화예술과 (02-2133-2561)","","","","","","","","","","","","","","명칭","개요","관련 작품","","위치","교통편","출처","","","","","","","","","","","","","","","1","4","#0000FF","","2015-10-07 16:45:21.0","2015-10-07 17:37:20.0"
"대학로 112","종로구 동숭동 1-119","127.002421337","37.580935472","100228","SeoulLiter_020","KOR","고산 윤선도 시비","","종로구","동숭동","","1","119","","","고산 윤선도 시비","윤선도(1587?1671)는 본관은 해남 호가 고산 (孤山)으로 지금의 서울 종로 대학로의 한양 연화방에서 태어났다. 연화방 근처인 대학로에는 시조 「오우가」를 새긴 시비가 서있는데 물(水) 돌(石) 소나무(松) 대나무(竹) 달(月)을 다섯 친구로 삼아 쓴 시조다. 「오우가」는 고산문학의 대표작이며 우리말의 표현을 한 단계 발전시킨 걸작으로 잘 알려져 있다. 「오우가」를 읽다보면 대나무 달의 아름다운 이미지가 떠오른다.","'내 벗이 몇인가 하니 수석과 송죽이라 동산에 달 오르니 그 더욱 반갑구나 두어라 이 다섯밖에 또 더하여 무엇하리 구름빛이 맑다하나 검기를 자주한다 바람소리 맑다하나 그칠 때가 많은 도다 맑고도 그칠 때 없기는 물뿐인가 하노라 꽃은 무슨 일로 피면서 쉬이지고 풀은 어이하여 푸르는 듯 누르나니 아마도 변치 않음은 바위뿐인가 하노라'  고산 윤선도 「오우가」 중에서","","종로구 대학로8길 1","지하철 4호선 혜화역 2번 출구 50m 마로니에 공원에 위치","서울문학지도  |  서울시 문화예술과 (02-2133-2561)","","","","","","","","","","","","","","명칭","개요","관련 작품","","위치","교통편","출처","","","","","","","","","","","","","","","1","4","#0000FF","","2015-10-07 16:45:21.0","2015-10-07 16:45:21.0"
"종로 54","종로구 관철동 45-3","126.983906996","37.569752939","100228","SeoulLiter_021","KOR","보신각","","종로구","관철동","","45","3","","","보신각","보신각(普信閣)은 종로사거리에 있는 한옥 누각으로 1396년 창건되었다. 이곳에 처음 종을 건 해는 1398년이며 종로 네 거리로 옮긴 것은 1413년이다. 보신각종은 심훈의 시 「그날이 오면」에 해방의 그날 머리로 받아 죽어도 좋을 상징물로 표현되어 있다. 채만식의 소설 「종로의 주민」에서는 주로 일본인들이 살던 충무로와 명동을 지칭하여 조선인과 일본 간의 경계의 표상으로 상징하고 있다.","'나는 밤 하늘에 날으는 까마귀와 같이 종로의 인경을 머리로 들이받아 울리오리다. 두개골은 깨어져 산산조각이 나도 기뻐서 죽사오매 오히려 무슨 한이 남으오리까.'  심훈 시 「그날이 오면」 중에서   “이야기에 팔려서 오는 줄도 모르게 어느덧 종각 앞을 지나 광교를 건너고 있다.”  채만식 「종로의 주민」 중에서","","종로구 종로 54","지하철 1호선 종각역 4번 출구 방향 20m 지점","서울문학지도  |  서울시 문화예술과 (02-2133-2561)","","","","","","","","","","","","","","명칭","개요","관련 작품","","위치","교통편","출처","","","","","","","","","","","","","","","1","4","#0000FF","","2015-10-07 16:45:21.0","2015-10-07 16:45:21.0"
"종로 51","종로구 공평동 70","126.983682892","37.570781811","100228","SeoulLiter_022","KOR","종로타워 (옛 화신백화점)","","종로구","공평동","","70","","","","종로타워 (옛 화신백화점)","옛 화신백화점 자리에 지어진 종로타워 자리는 박태원 「소설가 구보씨의 일일」과 김승옥 「1964년 겨울」의 작품의 무대다. 1937년 6층 건물로 완공된 화신백화점은 당시 경성에서는 고층의 건축물로 그 일대의 랜드마크였다.","'구보는 약간 자신이 있는 듯싶은 걸음걸이로 전차 선로를 두 번 횡단하여 화신상회 앞으로 간다. 그리고 저도 모를 사이에 그의 발은 백화점 안으로 들어서기조차 하였다.'  박태원 「소설가 구보씨의 일일」 중에서   “화신백화점 육층의 창들 중에서는 그중 세 개에서만 불빛이 나오고 있었습니다...”  김승옥 「서울 1964년 겨울」 중에서]","","종로구 종로 51 (공평동 70)","지하철 1호선 종각역 3번 출구 좌측으로 30m 지점","서울문학지도  |  서울시 문화예술과 (02-2133-2561)","","","","","","","","","","","","","","명칭","개요","관련 작품","","위치","교통편","출처","","","","","","","","","","","","","","","1","4","#0000FF","","2015-10-07 16:45:21.0","2015-10-07 16:45:21.0"
"대학로 104","종로구 동숭동 1-124","127.002828200","37.580451100","100228","SeoulLiter_023","KOR","대학로","","종로구","동숭동","","1-124","","","","대학로","종로구 이화동 사거리에서 혜화동 사거리에 이르는 약 1km 길 양편으로 옛 서울대학교 문리과대학과 서울의대가 자리잡고 있다. 서울대학교 문리대 캠퍼스가 관악산 아래로 이전함에 따라 문화단체들과 연극공연장들이 대거 들어섰다. 마로니에 공원에는 시민 휴식 공간과 다양한 카페 등이 많다. 예전에는 서울 문리대생들을 중심으로 한 지성인의 거리이기도 했다. 이곳을 배경으로 많은 문학작품이 쓰여졌다.","'4?19가 나던 해 세밑 우리는 오후 다섯 시에 만나 반갑게 악수를 나누고 불도 없이 차가운 방에 앉아 하얀 입김 뿜으며 열띤 토론을 벌였다 어리석게도 우리는 무엇인가를 정치와는 전혀 관계없는 무엇인가를 위해서 살리라 믿었던 것이다 결론 없는 모임을 끝낸 밤 혜화동 로터리에서 대포를 마시며 사랑과 아르바이트와 병역 문제 때문에 우리는 때묻지 않은 고민을 했고 아무도 귀기울이지 않는 노래를 누구도 흉내낼 수 없는 노래를 저마다 목청껏 불렀다'  김광규 「희미한 옛 사랑의 그림자」 중에서","","종로구 동숭동 1-121 번지 일대","지하철 4호선 혜화역 2번 출구 50m","서울문학지도  |  서울시 문화예술과 (02-2133-2561)","","","","","","","","","","","","","","명칭","개요","관련 작품","","위치","교통편","출처","","","","","","","","","","","","","","","1","4","#0000FF","","2015-10-07 16:45:21.0","2015-10-07 16:45:21.0"
"창의문로 118","종로구 부암동 277-11","126.966406717","37.592744878","100228","SeoulLiter_024","KOR","자하문","","종로구","부암동","","277","11","","","자하문","1396년 한양도성을 쌓을 때 북서쪽에 세운 4소문 중의 한 곳이다. 자하문이 북문으로 불리어지는 이유는 북대문인 숙정문이 항상 닫혀 있었으므로 북쪽으로 통행하려면 이 문을 통과해야 했기 때문이다. 1623년 의군(義軍)이 이 문을 통과하여 광해군을 몰아내고 반정이 성공하여 창의문이란 별칭을 가지고 있다. 이곳은 청계천의 발원지며 김관식 시인은 「자하문 밖」이란 시에서 이곳의 정경을 표현했다.","'사람이 사는 길은 물이 흘러가는 길 산마루 어느집 물항아리에 나는 물이 되어 고여 있다가 바람에 출렁거려 한줄기 가느다란 시냇물처럼 여기에 흘러왔을 따름인 것이다.'  김관식 「자하문 밖」 중에서","","종로구 청운동","지하철 3호선 경복궁역 3번 출구 시내버스 1020 7022 7212을 탑승하여 자하문에서 하차","서울문학지도  |  서울시 문화예술과 (02-2133-2561)","","","","","","","","","","","","","","명칭","개요","관련 작품","","위치","교통편","출처","","","","","","","","","","","","","","","1","4","#0000FF","","2015-10-07 16:45:21.0","2015-10-07 16:45:21.0"
"서소문로11길 19","중구 정동 34-5","126.972261725","37.563702955","100228","SeoulLiter_025","KOR","한국문학의 산실 배재고보터와 배재학당 역사박물관","","중구","정동","","34","5","","","한국문학의 산실 배재고보터와 배재학당 역사박물관","배재학당 설립자인 아펜젤러(Appenzeller Henry Gerhart 1858~1902)는 미국 펜실베이니아 출신으로 1882년 뉴저지 주 드류신학교를 졸업하고 1885년 4월 5일 조선에 입국하였다. 아펜젤러는 한양의 정동에 한옥을 구입하고 이곳에서 복음과 교육활동을 병행하며 1885년 8월부터는 4명의 학생을 가르치기 시작하였다. 아펜젤러는 학교를 세울 것을 결정하고 고종으로부터 배재학당이라는 학교명을 부여받는데 이는 우리나라 최초의 중등교육기관이며 이후 수많은 문인들이 배재학당에서 배출되었다. 현재 배재학당 터에는 배재학당 역사박물관이 세워져 있으며 배재학당의 본관은 사라졌지만 동관 건물은 원형대로 외관을 유지하며 배재학당 역사박물관으로 사용되고 있다. 김소월 나도향 박세영 박팔양 등이 이 학교 출신이다.","","","중구 서소문로11길 19","지하철 2호선 시청역 10번 출구에서 10분 대한항공 빌딩을 지나 직진 고려삼계탕과 파리바게트 사이 일방통행로 좌측 빨간 건물 (배재학당역사박물관)","서울문학지도  |  서울시 문화예술과 (02-2133-2561)","","","","","","","","","","","","","","명칭","개요","","","위치","교통편","출처","","","","","","","","","","","","","","","1","4","#0000FF","","2015-10-07 16:45:21.0","2015-10-07 16:45:21.0"
"퇴계로26길 65","중구 예장동 2-20","126.989326759","37.558290916","100228","SeoulLiter_026","KOR","문학의집?서울","","중구","예장동","","2","20","","02-778-1026","문학의집?서울","문학의 집?서울은 유한킴벌리㈜의 ‘우리 강산 푸르게 푸르게’ 숲 운동과 연계하여 2005년 산 림청의 후원으로 <산림문학관>을 개관하여 시민들에게 개방하며 다양한 행사를 진행하고 있다. 수요문학특강 음악이 있는 문학마당 시 낭송회 문인들의 자화상전 시서화전 친필전 등이 정기 혹은 수시로 개최된다. 청소년 관련 문학행사의 하나로 백일장 문학강연 등을 무료로 진행하고 있다. 세미나실과 전시장이 있고 2층에는 문인들의 사랑방과 회의실 <산림문학관>에는 150여명 수용 가능한 강당과 2층 세미나실 회의실 또 자유롭게 책을 볼 수 있는 북카페가 있다. 월간 <문학의 집?서울>을 발행하여 무료로 배부하고 있다. 모든 행사와 전시회 관람도 무료이다.","","","중구 퇴계로26길 65","지하철 3 4호선 충무로역 4번 출구 도보 10분","서울문학지도  |  서울시 문화예술과 (02-2133-2561)","","","","","","","","","","","","","","명칭","개요","","","위치","교통편","출처","","","","","","","","","","","","","","","1","4","#0000FF","","2015-10-07 16:45:21.0","2015-10-07 16:45:21.0"
"4.19로8길 17","강북구 수유동 산 9-1","127.007233600","37.649174300","100228","SeoulLiter_046","KOR","국립4?19 민주묘지추모 시비","","강북구","수유동","산","9","1","","02-996-0419","국립4?19 민주묘지추모 시비","1960년 4.19혁명에 참가했던 희생자들을 위한 묘지이다. 총 면적은 약 3만평이며 유영봉안소 기념관과 315기의 묘소가 안치되어 있다. 4?19혁명 당시 사망자와 부상자 277명 4?19혁명 유공건국포장 수상자 38명이 안치되어 있다. 묘역 좌?우측에는 수호예찬의 시비가 서 있다.","","","강북구 4.19로8길 17","지하철: 4호선 수유역 하차 지선버스: 강북011119(4?19방향) 1144 1166 1218 간선버스: 101 104 109 120 144 151 170","서울문학지도  |  서울시 문화예술과 (02-2133-2561)","","","","","","","","","","","","","","명칭","개요","","","위치","교통편","출처","","","","","","","","","","","","","","","1","4","#0000FF","","2015-10-07 16:45:21.0","2015-10-08 15:11:02.0"
"동호로 268","중구 장충동2가 186-210","127.004140191","37.559808342","100228","SeoulLiter_027","KOR","한국현대문학관","","중구","장충동2가","","186","210","","02-2277-4857~8","한국현대문학관","우리나라 최초의 종합문학관으로 수필가 전숙희 선생(1916~2010)이 설립했다. 전숙희 선생은 국제PEN본부 종신부회장으로서 세계 각국을 오가며 문학관의 필요성을 인식하고 《동서문학》을 발행하였고 20년 간 쌓아온 자료들과 문단뿐 아니라 각계 각층에서 기증한 희귀본 친필원고들을 모아 1997년 개관했다.","","○ 개관시간  -월~금 :  10시~17시 - 토 :  10시~12시 (단 5~10월/10시~14시)  ○ 관람료  - 개인 :  일반 3000원 청소년 2000원 - 단체 (10인 이상) :  일반 2000원 청소년 1500원  * 일반: 대학생 이상 성인    청소년: 초?중?고등학생  ○ 연락처  T 02-2277-4857~8  F 02-2277-4859  E shi1997@hanmail.net","중구 동호로 268","지하철 3호선 동대입구역 1번 출구로 나와 파라다이스 빌딩(1층 우리은행) 오른쪽 골목으로 진입 정면으로 보이는 주차장 안쪽으로 50m 직진","서울문학지도  |  서울시 문화예술과 (02-2133-2561)","","","","","","","","","","","","","","명칭","개요","","이용 안내","위치","교통편","출처","","","","","","","","","","","","","","","1","4","#0000FF","","2015-10-07 16:45:21.0","2015-10-07 16:45:21.0"
"남산공원길 609","중구 예장동 산 5-6","126.989897326","37.553941339","100228","SeoulLiter_028","KOR","남산 조지훈 시비","","중구","예장동","산","5","6","","","남산 조지훈 시비","조지훈 시인 스스로도 ‘방랑시편’이라고 소개했던 작품 중 하나인 「파초우」를 새긴 시비다. 파초우 시비는 1971년 5월 11일에 세워졌으며 후면 약력은 김종길 시인이 썼다.","'외로이 흘러간 한 송이 구름 이 밤을 어디메서 쉬리라던고 성긴 빗방울 파초앞에 후두기는 저녁 어스름 창 열고 푸른 산과 마주 앉아라. 들어도 싫지 않은 물소리기에 날마다 바라도 그리운 산아 온 아침 나의 꿈을 스쳐간 구름 이 밤을 어디메서 쉬리라던고'  조지훈 시 「파초우」 전문","","중구 예장동 산 5-6번지 남산 북촌순환도로","","서울문학지도  |  서울시 문화예술과 (02-2133-2561)","","","","","","","","","","","","","","명칭","개요","관련 작품","","위치","","출처","","","","","","","","","","","","","","","1","4","#0000FF","","2015-10-07 16:45:21.0","2015-10-07 16:45:21.0"
"필동로1길 30","중구 장충동2가 산 7-4","127.000687200","37.557624500","100228","SeoulLiter_029","KOR","신경림 시비 '목계장터'","","중구","장충동2가","산","7","4","","","신경림 시비 '목계장터'","신경림 시인은 충북 충주 출생으로 1956년 <문학예술지>에 시 「갈대」로 추천받아 등단했다. 우리나라의 농촌 정서를 민족의식과 서정성을 지닌 시로 표현하여 각광을 받아왔다. 시 「목계장터」는 떠돌이 민중들이 삶의 애환을 극복하려는 의지가 담겨 있는 시다. 목계장터 시비는 신경림 시인의 모교 동국대학교 정문 왼쪽 입구에 서 있다.","'하늘은 날더러 구름이 되라 하고 땅은 날더러 바람이 되라 하네 청룡 흑룡 흩어져 비 개인 나루 잡초나 일깨우는 잔바람이 되라네'  신경림 시인의 시 「목계장터」 중에서","","지하철 3호선 동국대역 하차 동국대 정문 왼쪽 입구","","서울문학지도  |  서울시 문화예술과 (02-2133-2561)","","","","","","","","","","","","","","명칭","개요","관련 작품","","위치","","출처","","","","","","","","","","","","","","","1","4","#0000FF","","2015-10-07 16:45:21.0","2015-10-07 17:56:57.0"
"소월로 109","용산구 후암동 30-84","126.981982200","37.552855100","100228","SeoulLiter_030","KOR","김소월 시비 '산유화'","","용산구","후암동","","30","84","","","김소월 시비 '산유화'","김소월 시인은 우리 민족의 정서인 이별과 한을 문학적으로 승화시킨 시인이다. 시집 『진달래꽃』 한 권으로 우리나라의 대표적인 시인이 되었다. 대부분이 노래가 되어 우리 겨레의 가슴을 울리며 애송되고 있다. 대표시 중 「산유화」시비가 남산공원에 서 있다. 1968년 신시 60주년을 맞이하여 한국일보사에서 세웠다.","'산에는 꽃 피네 꽃이 피네 갈 봄 여름없이 꽃이 피네 산에 산에 피는 꽃은 저만치 혼자서 피어 있네'  김소월의 시 「산유화」 중에서","","남산도서관 입구","","서울문학지도  |  서울시 문화예술과 (02-2133-2561)","","","","","","","","","","","","","","명칭","개요","관련 작품","","위치","","출처","","","","","","","","","","","","","","","1","4","#0000FF","","2015-10-07 16:45:21.0","2015-10-07 17:48:18.0"
"","중구 회현동1가 100-115","126.980355400","37.553169700","100228","SeoulLiter_031","KOR","안중근 시비 '장부가'","","중구","회현동1가","","100","115","","","안중근 시비 '장부가'","안중근 의사가 시인이었다는 것을 아는 사람은 많지 않다. 시비가 남산공원 광장에 있다는 것은 더욱 알지 못한다. 안중근 의사의 화강암 시비에는 「장부가」가 새겨져 있다. 안중근은 ‘이등박문’을 저격하기 전 한시 장부가(丈夫歌)를 써서 우덕순에게 건네 주었는데 친필로 쓴 한시와 한글시다. 대한제국을 강탈하고 우리민족을 멸망에 이르게 한 이등박문을 ‘쥐새끼’ 라고 표현하였으며 시의 말미는 대한동포만세로 맺는다.","'장부가 세상에 처함이여 그 뜻이 크도다 때가 영웅을 지음이여 영웅이 때를 지으리로다 천하를 크게 바라봄이여 어느 날에 업을 이룰꼬 동풍이 점점 차가워짐이여 장사의 의기는 뜨겁도다 분개함이 한번 뻗치니 반드시 목적을 이루리로다 쥐새끼 이등이여 그 목숨 어찌 사람목숨인고 어찌 이에 이를 줄 알았으리 도망 갈 곳 없구나 동포여 동포여 어서 빨리 큰 일 이룰지어다 만세 만세! 대한독립 만세 만만세! 대한동포'","","안중근기념관 인근","","서울문학지도  |  서울시 문화예술과 (02-2133-2561)","","","","","","","","","","","","","","명칭","개요","관련 작품","","위치","","출처","","","","","","","","","","","","","","","1","4","#0000FF","","2015-10-07 16:45:21.0","2015-10-07 17:49:52.0"
"세종대로 125","중구 태평로1가 60-1","126.976520839","37.567528295","100228","SeoulLiter_032","KOR","서울특별시의회 본관 (옛 부민관)","","중구","태평로1가","","60","1","","","서울특별시의회 본관 (옛 부민관)","채만식 소설 「태평천하」와 김남천의 소설 「경영」의 작품의 무대  일제강점기에는 문화 예술 공연장이었던 부민관 건물을 리모델링하여 국회의사당과 서울시민회관을 거쳐 서울특별시의회 본관으로 사용되고 있다. 일제강점기에는 건물의 높은 부분에 시계가 걸려 있어서 시계탑이란 랜드마크로 통했다. 채만식의 소설 「태평천하」에는 북촌 계동에 살고 있던 구두쇠 윤직원 영감이 부민관으로 명창공연을 관람할 때를 다음과 같이 표현하고 있다.","“무심히 공차를 탄 윤직원 영감은 총독부 앞에서부터 춘심이를 앞세우고 부민관까지 천천히 걸어서 갑니다. 좁은 뽀수 타니라구 고생헌 값을 이렇기 도루 찾는 법이다. 종로에서 그렇듯 많이 충그리고 길이 터지고 했어도 회장에 당도했을 때에는 부민관 꼭대기의 큰 시계가 열두시밖에는 더 되지 않았습니다. 입장권을 사기 전에 윤직원 영감과 춘심이 사이에는 또 한바탕 상지가 생겼습니다.”  채만식 「태평천하」 중에서","","중구 세종대로 125 (태평로1가 60-1)","지하철 1 2호선 시청역 3번 출구 광화문 쪽 50m 지점","서울문학지도  |  서울시 문화예술과 (02-2133-2561)","","","","","","","","","","","","","","명칭","개요","관련 작품","","위치","교통편","출처","","","","","","","","","","","","","","","1","4","#0000FF","","2015-10-07 16:45:21.0","2015-10-07 16:45:21.0"
"명동길 74","중구 명동2가 1-1","126.986838727","37.563285542","100228","SeoulLiter_033","KOR","명동성당","","중구","명동2가","","1","1","","","명동성당","한국 천주교의 총본산인 명동성당은 고딕 양식 건물로 1892년 착공하여 1898년 완공되었으며 1945년 종현성당에서 명동대성당으로 이름이 변경되었다. 명동대성당은 1960년대 4?19 학생혁명과 민주당 정권의 등장 등의 시대적 격랑 속에서 진보적인 입장을 취한다. 그 후 명동대성당이 중심이 되어 벌였던 민주화와 인권운동은 70년대와 80년대에 절정에 달하게 된다. 1930년대 소설가 이태준은 「사상의 월야」라는 작품을 통해 명동성당을 표현했다.","'미사종이 올리기 전에 천주교당으로 올라왔다. 거의 남산 중턱만큼이나 높은 지대여서 장안이 눈아래 즐비하게 깔린다. 교당은 가까이 와보니 높으다는 것보다는 장엄한 편이다. 서울의 여명은 먼저 이 교당 첨탑에 비치는 것이며 좌우남하의 홍예문들은 거기가 곧 천국에 들어가는 문처럼 위엄스러웠다.'  이태준 「사상의 월야」 중에서","","중구 명동길 74","지하철 3호선 을지로3가역 12번 출구 남대문세무서 방향 300m 지점   지하철 4호선 명동역 10번 출구 세종호텔 쪽에서 500m 지점","서울문학지도  |  서울시 문화예술과 (02-2133-2561)","","","","","","","","","","","","","","명칭","개요","관련 작품","","위치","교통편","출처","","","","","","","","","","","","","","","1","4","#0000FF","","2015-10-07 16:45:21.0","2015-10-07 16:45:21.0"
"통일로4길 30","중구 정동 32-1","126.971303036","37.565861164","100228","SeoulLiter_034","KOR","이화학당 (이화여고)","","중구","정동","","32","1","","","이화학당 (이화여고)","옛 이화학당 교정의 늙은 은행나무 아래에는 유관순(1902~1920) 열사가 빨래하던 우물터가 아직도 남아 있다. 유관순 열사의 삶과 죽음을 알고 박두진 시인의 <3월 1일의 하늘>을 읽으면 비록 3월이 아니더라도 조국의 해방과 자유의 소중함에 가슴이 흔들린다. 유관순 열사의 일대기를 함축한 문정희 시인의 시 「아우내의 새」는 읽을수록 가슴 뭉클하다. 이화여고에서는 이 시를 유관순 열사의 동상 뒤의 돌에 새겼다.","'유관순누나로 하여 처음 나는 3월 하늘에 뜨거운 피 무늬가 어려 있음을 알았다. 우리들의 대지에 뜨거운 살과 피가 젖어 있음을 알았다. 우리들의 조국은 우리들의 조국 우리들의 겨레는 우리들의 겨레 우리들의 자유는 우리들의 자유이어야 함을 알았다.'  박두진의 「3월 1일의 하늘」 중에서   '풀꽃 하나가 쓰러지는 세상을 붙들 수 있다. 조그만 솜털 손목으로 어둠에 잠기는 나라를 아주 잠시 아니 아주 영원히 건져 올릴 수 있다.'  문정희 시 「아우내의 새」 중에서","","중구 정동길 26","지하철 1 2호선 시청역 12번 출구 10분 거리 정동극장 방향 정동길 끝에 위치","서울문학지도  |  서울시 문화예술과 (02-2133-2561)","","","","","","","","","","","","","","명칭","개요","관련 작품","","위치","교통편","출처","","","","","","","","","","","","","","","1","4","#0000FF","","2015-10-07 16:45:21.0","2015-10-07 16:45:21.0"
"성북로 60","성북구 성북동 142-1","127.001098500","37.593567400","100228","SeoulLiter_035","KOR","조지훈 시인 <방우산장> 조형물","","성북구","성북동","","142","1","","","조지훈 시인 <방우산장> 조형물","조지훈(1920~1968) 시인이 30년간 살던 집이었으나 1998년에 헐리고 현재 4층 빌라가 세워졌다. 시인의 집은 사라졌지만 도로변(성북동 142-1번지)에 이를 기념하는 조형물이 2014년 봄에 세워졌는데 그것이 바로 <방우산장放牛山莊>이다. 방우산장은 성북동에 살았던 조지훈 시인이 살던 집 이름으로 1953년 신천지에 기고했던 <방우산장기>에서 “설핏한 저녁 햇살 아래 내가 올라타고 풀피리를 희롱할 한 마리 소만 있으면 그 소가 지금 어디에 가 있든지 내가 아랑곳할 것이 없기 때문이다”라고 쓰기도 했다. 방우산장의 시비에는 그의 대표시 「낙화」가 새겨져 있다.","'꽃이 지기로소니 바람을 탓하랴. 주렴 밖에 성긴 별이 하나 둘 스러지고 귀촉도 울음 뒤에 머언 산이 다가서다. 촛불을 꺼야 하리 꽃이 지는데 꽃 지는 그림자 뜰에 어리어 하이얀 미닫이가 우련 붉어라 묻혀서 사는 이의 고운 마음을 아는 이 있을까 저어하노니 꽃이 지는 아침은 울고 싶어라'  조지훈 시인의 시 「낙화」 중에서","","성북구 성북동 142-1번지","지하철 4호선 한성대역에서 성북동 방향으로 500m 거리 도로변","서울문학지도  |  서울시 문화예술과 (02-2133-2561)","","","","","","","","","","","","","","명칭","개요","관련 작품","","위치","교통편","출처","","","","","","","","","","","","","","","1","4","#0000FF","","2015-10-07 16:45:21.0","2015-10-07 18:00:04.0"
"성북로15길 9","성북구 성북동 126-20","127.000338587","37.592905449","100228","SeoulLiter_036","KOR","최순우 옛집","","성북구","성북동","","126","20","","02-3675-3401~2","최순우 옛집","황해도 개성 출생으로 도자기 전통목공예 회화 등 문화예술 전반에 걸쳐 많은 업적을 남긴 전 국립박물관장 최순우(1916~1984) 선생이 1976년부터 1984년 세상을 떠날 때까지 살았던 집이다. 1930년대에 지어진 한옥으로 정갈하고 깔끔하게 지어진 것이 특징이며 ‘ㄱ’자형 안채와 ‘ㄴ’자형 바깥채로 된 ‘ㅁ’자형 집이다. 최순우 선생은 우리 민족의 아름다운 역사와 문화 발견에 평생을 바친 분으로 작고 후 많은 호평을 받고 있는 「무량수전 배흘림기둥에 기대서서」도 이 집에서 집필했다. 최순우 선생은 1936년 그의 나이 20세 때 개성 부근의 문화유산을 답사할 정도로 고유문화재에 대한 관심과 열정이 뛰어났으며 1943년부터는 개성박물관에서 근무를 시작했다. 홀로 문화유산 연구를 하고 때때로 고유섭 선생에게 지도를 받으며 그는 우리 문화재 지킴이의 큰 재목으로 변모하게 된다. 전업 작가의 글을 능가하는 문화재 묘사는 그가 문화재의 애정과 아름다운 서정의 심미안을 지녔기에 가능했다. 국립중앙박물관을 구 중앙청 청사로 이전할 때 업무와 신병으로 이 집에서 별세했다. 2002년 시민들과 한국내셔널트러스트가 보존한 시민문화유산 1호이다.","","○ 이용시간 :  하절기 10:00 ~ 16:00 ○ 휴무일 :  매주 월요일 일요일 동절기(12월~3월) 휴무일 ○ 홈페이지 :  http://nt-heritage.org/choisunu/main.asp","성북구 성북로15길 9","지하철 4호선 한성대 입구역 6번 출구에서 2112 1111번이나 마을버스 03번 승차 ‘홍익중고’ 앞에서 하차 버스정류장 건너편 ‘Cafe April’(예전 등촌칼국수)와 제일세탁소 사이 골목   도보 : 한성대입구역 5번 출구에서 10분 거리","서울문학지도  |  서울시 문화예술과 (02-2133-2561)","","","","","","","","","","","","","","명칭","개요","","이용 안내","위치","교통편","출처","","","","","","","","","","","","","","","1","4","#0000FF","","2015-10-07 16:45:21.0","2015-10-07 16:45:21.0"
"","도봉구 도봉동 산 64","127.035534000","37.686455600","100228","SeoulLiter_043","KOR","정한모 시비","","도봉구","도봉동","산","64","","","","정한모 시비","도봉산 입구의 광륜사 입구에 정한모(1923~1991)시인의 ‘통일기원시비’가 서 있다.  한국방송통신대학 총동창회가 세운 ‘통일기원시비’는 자연석을 그대로 이용하여 시를 새긴 것이 투박한 표면이 특징이다.  정한모 시인은 1955년 《사상계》 7월호에 시 「음영(陰影)」을 발표하면서 문학 활동을 시작하였다. 1958년 첫 시집 『카오스의 사족』 1959년 『여백을 위한 서정』 1970년 『아가의 방』을 출간하였다.  밤과 어둠의 이미지로 시대에 대한 절망과 공포를 표현하면서 휴머니즘에 토대를 두고 본질을 탐구하는 열정을 보여주었다.","","","북한산국립공원 도봉산관리사무소 입구에서 200m 우측에 있는 공동화장실 앞","","서울문학지도  |  서울시 문화예술과 (02-2133-2561)","","","","","","","","","","","","","","명칭","개요","","","위치","","출처","","","","","","","","","","","","","","","1","4","#0000FF","","2015-10-07 16:45:21.0","2015-10-07 18:04:44.0"
"성북로26길 8","성북구 성북동 248","126.994736205","37.595037520","100228","SeoulLiter_037","KOR","수연산방(壽硯山房)","","성북구","성북동","","248","","","02-764-1736","수연산방(壽硯山房)","수연산방은 소설가 이태준(1904~ ? )이 1933년부터 1944년까지 살았던 집의 이름이다. 이태준은 ‘수연산방’이란 편액을 걸고 정지용 이효석 등과 구인회를 결성하여 한국 근대문학을 주도했다. 무엇보다 수연산방은 단편 「달밤」과 「돌다리」 「색시」와 중편 「코스모스 피는 정원」 장편 「왕자호동」 「황진이」를 집필한 문학의 산실이다. 기와지붕과 처마선의 곡선들은 우리 한옥의 예스러운 멋이 그대로 살아있으며 당호(堂號)인 수연산방(壽硯山房)은 집의 고즈넉함과 잘 어울리는 현판인데 “오래된 벼루서재”란 뜻이다. 세월이 흘렀지만 아직도 수연산방은 아름답고 정갈한 분위기를 지닌 명소로 각광을 받고 있으며 1999년부터 현재까지(2014년)까지는 이태준의 외종손녀가 전통찻집으로 꾸며 운영하고 있다. 수연산방은 소설가 이태준 선생이 직접 지어 살았으며 당대의 많은 문인들이 드나들던 집이었으므로 역사와 의미가 곳곳에 배어있는 장소라고 할 수 있다.","","○ 평일(월~금)  11:30~22:30  ○ 주말  11:30~22:00","성북구 성북로26길 8","지하철 4호선 한성대입구역 6번 출구 버스정류장에서 1111번 2112번 버스 승차 후 성북구립미술관에서 하차 10m","서울문학지도  |  서울시 문화예술과 (02-2133-2561)","","","","","","","","","","","","","","명칭","개요","","이용 안내","위치","교통편","출처","","","","","","","","","","","","","","","1","4","#0000FF","","2015-10-07 16:45:21.0","2015-10-07 16:45:21.0"
"성북로29길 24","성북구 성북동 222-1","126.991681949","37.593616440","100228","SeoulLiter_038","KOR","심우장(尋牛莊)","","성북구","성북동","","222","1","","","심우장(尋牛莊)","한용운 시인(1879~1944)이 1933년부터 세상을 떠났던 1944년까지 살았던 집이다. 조선총독부가 보이지 않는 성북동 산 속에 북향으로 지었으며 불도 피우지 않고 살았다고 전해진다. 정면 4칸 측면 2칸의 ‘ㄴ’자형 한옥으로 중앙에 대청 2칸 오른쪽으로는 부엌 1칸이 있으며 부엌에서 남쪽방향으로 찬마루 1칸이 나뉘어져 있다. 심우장(尋牛莊)이란 당대의 유명서예가인 위창 오세창 선생이 쓴 편액을 지나서 있는 온돌방에는 각종 한용운 관련 자료가 전시되어 있어 한용운 시인의 다양한 면모를 엿볼 수 있다. 「님의 침묵」으로 유명한 한용운 시인은 시뿐만이 아니라 시조 한시 소설 등 우리 민족의 역사와 진솔한 삶을 토대로 글을 썼던 위대한 문인이었다. 심우장은 만해의 사상과 문학 독립의지가 집약된 공간이다. ‘심우장’이라는 당호는 “산속에서 동자가 소를 찾는다”라는 초발심을 비유한 선(禪)의 단계에서 따왔다.","님의 침묵  '님은 갔습니다 아아 사랑하는 나의 님은 갔습니다  푸른 산빛을 깨치고 단풍나무 숲을 향하여 난 작은 길을 걸어서 차마 떨치고 갔습니다 황금의 꽃같이 굳고 빛나던 옛 맹세는 차디찬 티끌이 되어서 한숨의 미풍에 날아갔습니다.  -중략-  우리는 만날 때에 떠날 것을 염려하는 것과 같이 떠날 때에 다시 만날 것을 믿습니다  아아 님은 갔지마는 나는 님을 보내지 아니하였습니다. 제곡조를 못이기는 사랑의 노래는 님의 침묵을 휩싸고 돕니다.'  한용운의 「님의 침묵」 중에서","","성북구 성북로29길 24","지하철 4호선 한성대입구역 6번 출구 버스정류장에서 1111번 2112번 버스 승차 후 죠이빌리지 앞에서 하차 <심우장>이정표 길 따라 언덕길 80m 지점에 위치","서울문학지도  |  서울시 문화예술과 (02-2133-2561)","","","","","","","","","","","","","","명칭","개요","관련 작품","","위치","교통편","출처","","","","","","","","","","","","","","","1","4","#0000FF","","2015-10-07 16:45:21.0","2015-10-07 16:45:21.0"
"선잠로5길 68","성북구 성북동 321-3","126.993455429","37.598707369","100228","SeoulLiter_039","KOR","길상사(吉祥寺)","","성북구","성북동","","321","3","","02-741~4696~7","길상사(吉祥寺)","길상사는 백석 시인의 정인이었던 김영한이 시주한 터에 1997년 창건되어 20년이 채 되지 않은 사찰이지만 길상사와 관련한 사랑이야기가 잘 알려져 있어 명소로 자리잡았다. 백석(1912~1996)이 함흥영생고보 교사로 재직했던 시절 기생이었던 김영한과 인연을 맺었는데 백석의 함께 떠나자는 제안을 김영한이 거절하고 그들은 헤어지게 되었다. 백석이 그녀에게 마지막 선물로 남긴 시가 바로 ‘나와 나타샤와 흰 당나귀’이다. 6?25전쟁 이후 김영한은 서울 3대 요정 중의 하나였던 ‘대원각’을 운영하면서도 백석을 잊지 못하였고 법정스님의 「무소유」를 읽고 감명받아 1997년 당시 700억원 대 가치였던 대원각을 시주하게 된다. 김영한의 대원각 시주 부탁은 법정스님의 수 차례 거절로 무산되었으며 마침내 1997년 ‘맑고 향기롭게 근본도량 길상사’라는 사뭇 긴 이름의 사찰로 이름을 바꾸어 12월 14일 세워졌다. 1999년 겨울 김영한은 세상을 떠났고 그의 유언대로 유골은 길상사의 ‘길상헌’ 뒷편에 뿌려졌으며 생전 저서『내 사랑 백석』에서 “백석의 시는 자신에게 있어 쓸쓸한 적막을 시들지 않게 하는 맑고 신선한 생명의 원천수였다”고 회고했다.","","","성북구 선잠로5길 68","지하철 4호선 한성대 입구 6번 출구 1111번 버스정류소 30m 지나 진학서점 옆 ‘동원마트’ 앞  ○ 길상사에서 운영 운행버스 시간표  [길상사 출발] 08:10 09:10 09:30 09:50 11:45 12:45 14:45 16:15  [삼선교 출발] 08:30 09:20 09:40 10:00 12:00 13:00 15:00 16:30","서울문학지도  |  서울시 문화예술과 (02-2133-2561)","","","","","","","","","","","","","","명칭","개요","","","위치","교통편","출처","","","","","","","","","","","","","","","1","4","#0000FF","","2015-10-07 16:45:21.0","2015-10-07 16:45:21.0"
"","도봉구 도봉동 산 65","127.033206675","37.684799400","100228","SeoulLiter_040","KOR","김수영 시비","","도봉구","도봉동","산","65","","","","김수영 시비","작은 화강암으로 만들어진 김수영 시비에는 그의 대표시 <풀>이 음각되어 있으며 흉상을 제작하여 부착했기 때문에 예술적인 조화도 뛰어나다. 주변의 풀과도 잘 어울리는 단아한 모습을 하고 있으며 전체적으로 <풀>의 이미지에 누가 되지 않을 정도의 소박미를 담고 있다. 시비의 아래에는 그의 유해가 묻혀있다.","'풀이 눕는다 비를 몰아오는 동풍에 나부껴 풀은 눕고 드디어 울었다 날이 흐려서 더 울다가 다시 누웠다 풀이 눕는다'  김수영 시인 시 <풀> 전문","","도봉구 도봉동 산 65","지하철 1 7호선 도봉산역 하차 국립공원입구에서 (1.5Km) 20분 도보 도봉서원 바로 아래에 등산로 우측에 위치","서울문학지도  |  서울시 문화예술과 (02-2133-2561)","","","","","","","","","","","","","","명칭","개요","관련 작품","","위치","교통편","출처","","","","","","","","","","","","","","","1","4","#0000FF","","2015-10-07 16:45:21.0","2015-10-07 16:45:21.0"
"해등로32길 80","도봉구 방학동 498-31","127.023996570","37.660012404","100228","SeoulLiter_041","KOR","김수영 문학관","","도봉구","방학동","","498","31","","","김수영 문학관","2013년 11월 27일 <김수영 문학관>이 개관되었다. 예전부터 있던 문화센터를 리모델링한 <김수영문학관>엔 시인의 작품 초고와 번역 원고 등 육필 원고와 유품이 전시되어 있다. 김수영 시인이 생전에 사용하던 서재 공간인 책상과 의자 필기도구 등도 재현해 놓았다. 특히 전쟁 중에 태어나 고생했던 장남에게보낸 편지와 어린 아들에게 한자를 가르치느라 시인이 직접 써서 만든 교재도 관람할 수 있다. 김수영 문학관이 이곳에 세워진 것은 그가 마지막 살던 집터가 있고 도봉산 자락에 시비와 유해가 묻혀 있는 곳이기 때문이다. 김수영 시인의 부인 김현경 여사는 45년간 간직했던 대부분의 유품을 문학관에 기증했다.","","","도봉구 해등로 32길 80","지하철 4호선 쌍문역 2번 출구 06번 마을버스 환승 김수영문학관 하차","서울문학지도  |  서울시 문화예술과 (02-2133-2561)","","","","","","","","","","","","","","명칭","개요","","","위치","교통편","출처","","","","","","","","","","","","","","","1","4","#0000FF","","2015-10-07 16:45:21.0","2015-10-07 16:45:21.0"
"도봉산길 86","도봉구 도봉동 산 22-1","127.029559100","37.687901100","100228","SeoulLiter_042","KOR","이병주 시비","","도봉구","도봉동","산","22","1","","","이병주 시비","도봉산을 등산하는 사람이라면 대부분 ‘도봉서원’를 지나 올라가게 된다.  그러나 바로 아래 ‘이병주 시비’가 서 있는 것을 아는 이는 드물다. 「북한산찬가」 제목의 시비다.  이 시는 소설가인 이병주가 1986년 ‘월간 《산》’에 연재했던 ‘산을 생각한다’에서 발표한 시다.  이병주(1921~1992)는 우리 민족의 역사의식을 핵심에 접근시킨 소설가(1921~1992)로 호는 나림(那林)이며 1965년 《세대》 7월호에 소설 「알렉산드리아」를 발표하여 등단하였다.  작품에 「관부 연락선」 「지리산」 「행복어사전」 등이 있다.","","","지하철 1 7호선 도봉산역 하차 국립공원입구에서 (1.5Km) 20분 도보 도봉서원 바로 아래에 등산로 우측에 위치","","서울문학지도  |  서울시 문화예술과 (02-2133-2561)","","","","","","","","","","","","","","명칭","개요","","","위치","","출처","","","","","","","","","","","","","","","1","4","#0000FF","","2015-10-07 16:45:21.0","2015-10-07 18:07:52.0"
"방학로17길 4-9","도봉구 방학동 산 77","127.022559400","37.661639700","100228","SeoulLiter_044","KOR","연산군 묘소","","도봉구","방학동","산","77","","","","연산군 묘소","연산군은 1476년에 태어나 1506년에 강화도 교동에서 세상을 떠났다. 만 30세의 나이였다. 그는 12년의 재임기간 사화(士禍)를 두 번씩이나 주도했다. 그러나 그는 시집을 출간했던 문인이었다. 연산군 일기에 많은 시가 있지만 시집은 남아 있지 않다. 중종실록의 중종 1년(1505) 6월 10일 조에는 연산군의 시집(詩集)을 출간하였다는 기록이 있다.","","","도봉구 방학동 산77번지","지하철 4호선 쌍문역 2번 출구 06번 마을버스 환승   신동아2.3차아파트 하차 도보 5분 거리","서울문학지도  |  서울시 문화예술과 (02-2133-2561)","","","","","","","","","","","","","","명칭","개요","","","위치","교통편","출처","","","","","","","","","","","","","","","1","4","#0000FF","","2015-10-07 16:45:21.0","2015-10-07 16:45:21.0"
"인수봉로 159","강북구 수유동 498-16","127.012383800","37.634742700","100228","SeoulLiter_047","KOR","문익환 시비","","강북구","수유동","","498","16","","02-2125-0114","문익환 시비","민주화와 통일운동가 목사였으며 자유와 통일을 주제로 한 시를 쓴 문인이다. 성북구 수유동 한신대학원 교정에 세워진 시 「잠꼬대 아닌 잠꼬대」는 놋쇠 조형물로 화가 임옥상이 제작했다.  1992년에는 노벨평화상 후보에 오르기도 했으며 제3회 4월혁명상을 받았다.  시집으로 『새삼스런 하루』(1973) 『꿈을 비는 마음』(1978) 『난 뒤로 물러설 자리가 없어요』(1984) 『한 하늘 두 하늘』(1989) 『옥중일기』(1991) 등이 있으며 수필집으로는 『새 것 아름다운 것』(1984)이 있으며 『꿈이 오는 새벽』(1984) 『통일을 비는 마음』(1989) 『히브리 민중사』 (1990) 『가슴으로 만난 평양』(1990) 등이 있다.","","","강북구 인수봉로 159","지하철 4호선 수유역 하차 4번 출구에서 뒤돌아 나와서 마을버스(강북 02번)탑승 → 한신대학교 신학대학원 하차 시비는 한신대학원 본관 앞","서울문학지도  |  서울시 문화예술과 (02-2133-2561)","","","","","","","","","","","","","","명칭","개요","","","위치","교통편","출처","","","","","","","","","","","","","","","1","4","#0000FF","","2015-10-07 16:45:21.0","2015-10-07 16:45:21.0"
"4.19로8길 17","강북구 수유동 산 9-1","127.008586800","37.648535500","100228","SeoulLiter_048","KOR","국립4?19묘지","","강북구","수유동","산","9","1","","02-996-0419","국립4?19묘지","<국립4?19민주묘지>는 1960년 4?19혁명에 참가했던 희생자들을 위한 묘지이다.  1993년부터 4?19묘지가 성역화 되었으며 <국립4?19민주묘지>로 변경되었다.  총 면적은 약 3만 평이며 유영봉안소 기념관과 315기의 묘소가 안치되어 있다.  4?19혁명 당시 사망자와 부상자 277명 4?19혁명 유공건국포장 수상자 38명이 안장되어 있다.","국립 4?19 민주묘지 수호예찬의 시비   묘역 좌 우측에는 입구에는 수호예찬의 시비가 서 있다. 장만영「조가」 구상「진혼곡」 박목월「죽어서 영원히 사는 분들을 위하여」 조지훈「합장」 이한직「진혼의노래」 정한모「빈의자」 박화목「4월」 송 욱「소리치는 태양」 유안진「꽃으로 다시 살아」 이성부「손님」 윤후명「역사를 증언하는 자들이여」 김윤식「조가」등이다.","평일(월~금)  11:30~22:30  주말  11:30~22:00","강북구 4.19로8길 17","지하철 4호선 수유역 하차 지선버스 강북011119(4?19방향) 1144 1166 1218 간선버스 101 104 109 120 144 151 170","서울문학지도  |  서울시 문화예술과 (02-2133-2561)","","","","","","","","","","","","","","명칭","개요","참고사항","이용 안내","위치","교통편","출처","","","","","","","","","","","","","","","1","4","#0000FF","","2015-10-07 16:45:21.0","2015-10-08 14:56:07.0"
"4.19로8길 17","강북구 수유동 산 9-1","127.007318600","37.649174600","100228","SeoulLiter_049","KOR","구 상 (1918~2004)","","강북구","수유동","산","9","1","","02-764-1736","구 상 시비","함남 원산 출신으로 희망과 자유 신앙시를 주로 쓴 시인이다.  1946년 원산문학가동맹에서 펴낸 동인시집 《응향》에 「길」 「여명도」 「밤」을 발표하면서 문학 활동을 시작했다.  1951년 첫 시집 『구상시집』 1956년 『초토의 시』를 출간했다.  그는 우리나라의 카톨릭문학을 대표하는 시인이기도 하다.","진혼곡(鎭魂曲)  - 구 상  '손에 잡힐 듯한 봄 하늘에 무심히 흘러가는 구름이듯이 피 묻은 사연일랑 아랑곳 말고 형제들 넋이여 편안히 가오.  광풍이 휘몰아치는 쑥대밭 위에 가슴마다 일렁이는 역정의 파도 형제들이 틔워 놓은 그 한길 위에 오늘도 자유의 상렬이 꼬리를 물었소.  형제들이 뿌리고 간 목숨의 꽃씨야 우리가 기어이 가꾸어 피우고야 말리니 운명보다도 짙은 그 바람마저 버리고 어서 영원한 안식의 나래를 펴오.'","","성북구 성북로26길 8","지하철 4호선 한성대입구역 6번 출구 버스정류장에서 1111번 2112번 버스 승차 후 성북구립미술관에서 하차 10m","서울문학지도  |  서울시 문화예술과 (02-2133-2561)","","","","","","","","","","","","","","명칭","개요","관련 작품","","위치","교통편","출처","","","","","","","","","","","","","","","1","4","#0000FF","","2015-10-07 16:45:21.0","2015-10-08 15:39:40.0"
"4.19로8길 17","강북구 수유동 산 9-1","127.007509100","37.649161900","100228","SeoulLiter_050","KOR","박화목 (1924~2005)","","강북구","수유동","산","9","1","","02-764-1736","박화목 시비","황해도 해주 출생 아동문학가 시인으로 가곡 「보리밭」의 작사자이다.  해방정국에 월남하여 1946년 조선청년문학가협회 아동문학위원 한국아동문학회 부회장 국제펜클럽한국본부 위원을 역임했다.  1980년 대한민국 문학상을 수상했다.","","","성북구 성북로26길 8","지하철 4호선 한성대입구역 6번 출구 버스정류장에서 1111번 2112번 버스 승차 후 성북구립미술관에서 하차 10m","서울문학지도  |  서울시 문화예술과 (02-2133-2561)","","","","","","","","","","","","","","명칭","개요","","","위치","교통편","출처","","","","","","","","","","","","","","","1","4","#0000FF","","2015-10-07 16:45:21.0","2015-10-08 15:40:36.0"
"4.19로8길 17","강북구 수유동 산 9-1","127.007241700","37.647944000","100228","SeoulLiter_051","KOR","장만영 (1914~1975)","","강북구","수유동","산","9","1","","02-764-1736","장만영 시비","황해도 연백 출신으로 1932년 김억의 추천을 받아 《동광》에 「봄노래」를 발표하며 문학 활동을 시작했다.  시집 『양 羊』(1937년)을 시작으로 『축제』(1939) 『유년송』(1948) 『저녁 종소리』(1957) 『장만영시집』(1964) 『어느 날의 소녀에게』(1977)등을 출간했다.  한국시인협회 회장을 역임했다.","","","성북구 성북로26길 8","지하철 4호선 한성대입구역 6번 출구 버스정류장에서 1111번 2112번 버스 승차 후 성북구립미술관에서 하차 10m","서울문학지도  |  서울시 문화예술과 (02-2133-2561)","","","","","","","","","","","","","","명칭","개요","","","위치","교통편","출처","","","","","","","","","","","","","","","1","4","#0000FF","","2015-10-07 16:45:21.0","2015-10-08 15:41:38.0"
"통일로 247","서대문구 현저동 101","126.956171100","37.574445200","100228","SeoulLiter_052","KOR","서대문형무소역사관","","서대문구","현저동","","101","","","02-764-1736","서대문형무소역사관","1908년 경성감옥이란 이름으로 준공되었으며 3?1운동 당시에 1600여명이 구금되었던 감옥으로 일제강점기에 악명이 높았다.  홍명희 심훈 한용운 김광섭 이용악 정지용 임화 등 많은 문인들이 서대문형무소에 수감되었다.  수감 작가들이 쓴 작품 속에는 수감때의 상황과 심정이 담겨 있다.  3?1운동 당시에 경기고보 3학년이었던 심훈의 편지와 「어머니께 드리는 글」과 김광섭 시인이 종로경찰서 유치장에서 서대문형무소로 이송될 때에 썼던 「이별의 노래」란 시는 감동적이다. 1987년부터 사적으로 지정하고 서대문독립공원내 서대문형무소역사관으로 조성되었다.","","","서대문구 통일로 251","지하철 3호선 독립문역 5번 출구 (독립공원 방향) 독립문정류장에서 하차 간선(파랑)버스 : 471 701 702703 704 720 752 지선(초록)버스 : 7019 7021 7023 7025 7712 7737 광역(빨강)버스 : 9701 9703 9705 9709 9710 9711 9712","서울문학지도  |  서울시 문화예술과 (02-2133-2561)","","","","","","","","","","","","","","명칭","개요","","","위치","교통편","출처","","","","","","","","","","","","","","","1","4","#0000FF","","2015-10-07 16:45:21.0","2015-10-08 15:48:43.0"
"통일로 251","서대문구 현저동 101","126.955844200","37.574236400","100228","SeoulLiter_053","KOR","심훈 (1901~1937)","","서대문구","현저동","","101","","","02-764-1736","심훈 (1901~1937)","1919년 3?1운동은 심훈을 독립운동가의 삶으로 인도했다.  경기고보 3학년 때에 3?1운동 참가 혐의로 6개월 투옥된 후에 학교에서도 퇴학을 당했다.  당시 서대문감옥에서 쓴 편지는 감동적이다.","'어머니!  어머니께서는 조금도 저를 위하여 근심하지 마십시오. 지금 조선에는 우리 어머니 같으신 어머니가 몇 천 분이요 또 몇 만 분이나 계시지 않습니까? 그리고 어머니께서도 이 땅의 이슬을 받고 자라나신 공로 많고 소중한 따님의 한 분이시고 저는 어머니보다도 더 크신 어머니를 위하여 한 몸을 바치려는 영광스러운 이 땅의 사나이외다. 콩밥을 먹는다고 끼니때 마다 눈물겨워 하지도 마십시오.'  1919년 심훈의 옥중편지 중에서","","서대문구 통일로 251","지하철 3호선 독립문역 5번 출구 (독립공원 방향) 독립문정류장에서 하차 간선(파랑)버스 : 471 701 702703 704 720 752 지선(초록)버스 : 7019 7021 7023 7025 7712 7737 광역(빨강)버스 : 9701 9703 9705 9709 9710 9711 9712","서울문학지도  |  서울시 문화예술과 (02-2133-2561)","","","","","","","","","","","","","","명칭","개요","관련 작품","","위치","교통편","출처","","","","","","","","","","","","","","","1","4","#0000FF","","2015-10-07 16:45:21.0","2015-10-08 17:14:23.0"
"통일로 251","서대문구 현저동 101","126.956523800","37.574226000","100228","SeoulLiter_054","KOR","김광섭 시인 (1905~1977)","","서대문구","현저동","","101","","","02-764-1736","김광섭 시인 (1905~1977)","「이별의 노래」는 김광섭 시인이 1941년 5월 종로경찰서 유치장에서 서대문 형무소로 이감되던 날 쓴 시다. 창씨개명을 하지 않고 민족의식을 고취했다는 이유로 3년 8개월 동안 감옥살이를 했다.","'나는야 간다 나의 사랑하는 나라를 잃어버리고 깊은 산 묏골 속에 숨어서 우는 작은 새와 같이 나는야 간다. 푸른 하늘을 눈물로 적시며 아지 못하는 어둠 속으로 나는야 간다.'  김광섭 「이별의 노래」","","서대문구 통일로 251","지하철 3호선 독립문역 5번 출구 (독립공원 방향) 독립문정류장에서 하차 간선(파랑)버스 : 471 701 702703 704 720 752 지선(초록)버스 : 7019 7021 7023 7025 7712 7737 광역(빨강)버스 : 9701 9703 9705 9709 9710 9711 9712","서울문학지도  |  서울시 문화예술과 (02-2133-2561)","","","","","","","","","","","","","","명칭","개요","관련 작품","","위치","교통편","출처","","","","","","","","","","","","","","","1","4","#0000FF","","2015-10-07 16:45:21.0","2015-10-08 17:13:12.0"
"연세로 2","서대문구 창천동 18-49","126.937029264","37.555779195","100228","SeoulLiter_055","KOR","서대문 문학의 거리","","서대문구","창천동","","18","49","","","서대문 문학의 거리","서울 서대문 신촌 연세로에는 유명작가들의 핸드프린팅 명판을 설치한 <문학의 거리>가 있다.  이곳에는 가로 세로 50cm 크기 명판 15개가 설치되었으며 젊은 세대를 격려하고 힘을 북돋우기 위해 작가들이 직접 쓴 글귀로 새겨졌다.","‘죽는 날까지 하늘을 우러러 한점 부끄럼이 없기를 잎새에 이는 바람에도 나는 괴로워했다’ (윤동주) ‘날마다의 최선이 쌓여서 그 사람의 전 생애가 됩니다’ (김남조) ‘자살도 뒤집으면 살자’(이어령) ‘원고지 위에서 죽고 싶다’ (최인호) ‘인생이란 자기 스스로를 말로 삼아 끝없이 채찍질을 가하며 달려가는 노정이다’ (조정래) ‘아름다운 모국어의 나라에 태어난 것이 가장 큰 축복이다’ (이근배 ) ‘아픔을 이기니까 청춘이지요!’ (박범신 ) ‘울지 마라 외로우니까 사람이다. 살아간다는 것은 외로움을 견디는 일이다’ (정호승) ‘미치다 바치다 던지다의 절대 에너지여’ (유안진) ‘사람들 사이에 섬이 있다. 그 섬에 가고 싶다’ (정현종) ‘흔들리지 않고 피는 꽃이 어디 있으랴. 젖지 않고 피는 꽃이 어디 있으랴’ (도종환) ‘오늘 누군가 내게 해주었으면 하는 일을 내일 내가 누군가에게 해주자. 生의 아름다움이 꽃필 것이다’ (곽재구)","","지하철 2호선 신촌역 3번 출구 입구 홍익문고 앞 보도","","서울문학지도  |  서울시 문화예술과 (02-2133-2561)","","","","","","","","","","","","","","명칭","개요","관련 작품","","위치","","출처","","","","","","","","","","","","","","","1","4","#0000FF","","2015-10-07 16:45:22.0","2015-10-07 16:45:22.0"
"연세로 50-1","서대문구 신촌동 134","126.937416900","37.565495300","100228","SeoulLiter_056","KOR","윤동주 시비","","서대문구","신촌동","","134","","","","윤동주 시비","1968년 연세대학교 학생회 문인 친척 등이 모금한 성금으로 핀슨 홀(Pinson Hall) 앞에 <윤동주 시비>를 건립했다.  현재 <윤동주기념관>으로 사용되고 있는 핀슨 홀(Pinson Hall)은 윤동주 학창시절 당시 기숙사였다.  윤동주 시인의 친동생 윤일주가 설계했으며 육필로 쓴 「서시」를 새겨서 더욱 의미가 있다.","","","연세대학교 서울캠퍼스 본관 왼쪽 핀슨홀 앞","","서울문학지도  |  서울시 문화예술과 (02-2133-2561)","","","","","","","","","","","","","","명칭","개요","","","위치","","출처","","","","","","","","","","","","","","","1","4","#0000FF","","2015-10-07 16:45:22.0","2015-10-08 16:10:53.0"
"백제고분로 489","송파구 방이동 52","127.114379000","37.514161700","100228","SeoulLiter_057","KOR","서거정 시비","","송파구","방이동","","52","","","","서거정 시비","서거정(1420~1488)은 조선의 대표적인 문인으로 세종 문종 단종 세조 예종 성종의 시기 45년간 문학을 중시했던 문인이었다.  문장이 뛰어나고 명필가였던 서거정은 많은 편찬사업에 참여했다.  특히 동문선을 엮은 것은 문학적으로 큰 의미를 지닌다.  2001년 송파구 <방이근린공원>에 세워진 서거정 시비는 폭 3m 높이 2m 화강석으로 구름을 형상화 한 받침대 위에 보름달 형태로 세웠다.  시비 전면에는 이 지역에서 말년을 보내며 지은 <회고시>를 뒷면에는 <삼전도 도중>이란 시를 음각했다.  서거정은 현재의 서울시장 직무였던 ‘한성판윤’을 역임했다. 말년에 송파구 방이동 지역인 몽촌토성 근방에 거주했는데 성종이 몽촌 일대 땅을 주었기 때문이다.","'當年麗濟角雄强(당년려제각웅강)   그 옛날 고구려 백제 웅강함을 겨룰적에  一水中分彼此疆(일수중분피차강)   한강물 사이에 두고 서로 경계를 다투었네.   歷歷戰場今尙在(역력전장금상재)   지금도 전쟁터는 역력히 남았건만  昇平閭落富農桑(승평려락부농상)'  누에치는 마을마다 풍년들어 평화롭네.  회고시(懷古詩)    '羸馬三田渡(이마삼전도)   여윈 말 타고 삼밭나루로 가는데   西風吹帽斜(서풍취모사)   서풍이 불어대며 모자를 벗긴다.  澄江涵去？(징강함거안)   맑은 강물에 나는 기러기 잠기고  落日送還鴉(낙일송환아)'  지는 해는 돌아가는 까마귀를 보내네.  삼전도 도중(三田渡 途中)","","지하철 8호선 몽촌토성역 2번 출구 임마누엘 교회에서 우회전 300m지점 방이근린공원 입구에 위치","","서울문학지도  |  서울시 문화예술과 (02-2133-2561)","","","","","","","","","","","","","","명칭","개요","관련 작품","","위치","","출처","","","","","","","","","","","","","","","1","4","#0000FF","","2015-10-07 16:45:22.0","2015-10-08 16:15:21.0"
"양재대로 1278","송파구 방이동 89-22","127.135328600","37.519505700","100228","SeoulLiter_058","KOR","보성고등학교","","송파구","방이동","","89","22","","","보성고등학교","1906년 민족자본으로 개교한 명문 사학으로 한국 현대문학의 산실이다.  3?1운동에 앞장섰으며 독립선언서를 인쇄한 보성사 인쇄소가 보성고보 교내에 있었다.  염상섭(6회) 현진건(10회) 임화(16회) 상(17회) 김기림(18회) 윤곤강 조세희(51회) 조정래(52회)등이 보성 출신 문인이다. 교정에는 이 상 김기림 윤곤강 김광균의 시비가 있다.","","","전철 5호선 올림픽공원역(1번 출구)에서 하차하여 둔촌사거리 방면으로 500m 지점 우측에 위치","버스 3413  3412  3214  30-5 등","서울문학지도  |  서울시 문화예술과 (02-2133-2561)","","","","","","","","","","","","","","명칭","개요","","","위치","교통편","출처","","","","","","","","","","","","","","","1","4","#0000FF","","2015-10-07 16:45:22.0","2015-10-08 16:25:12.0"
"양재대로 1278","송파구 방이동 89-22","127.134761900","37.519690600","100228","SeoulLiter_059","KOR","이상 문학비","","송파구","방이동","","89-22","","","","이상 문학비","1990년 5월 보성고등학교 본관 왼쪽에 보성고 동문들과 변동림 여사의 후원으로 세워졌다.  이상의 천재성과 파격성을 강조하기 위해 추상 조각으로 제작했으며 이상문학비에는 직사각형의 검정색 돌에는 글자가 없는 것이 특징이다.  이를 보완하기 위한 이상의 얼굴 그림과 연보 대표시 「오감도」를 새긴 작은 시비를 세워 놓았다.","","","보성고 교정","전철 5호선 올림픽공원역(1번 출구)에서 하차하여 둔촌사거리 방면으로 500m 지점 우측에 위치  버스 3413  3412  3214  30-5 등","서울문학지도  |  서울시 문화예술과 (02-2133-2561)","","","","","","","","","","","","","","명칭","개요","","","위치","교통편","출처","","","","","","","","","","","","","","","1","4","#0000FF","","2015-10-07 16:45:22.0","2015-10-08 16:18:38.0"
"양재대로 1278","송파구 방이동 89-22","127.134779800","37.519501300","100228","SeoulLiter_060","KOR","윤곤강 시비","","송파구","방이동","","89","22","","","윤곤강 시비","윤곤강(1911~1950) 시인은 충남 서산 출신으로 보성고보를 졸업했다.  1933년 조선일보에 시 「겨울 밤」을 발표했으며 일제강점기 카프회원 검거 때에 구속되었다.  해방 후에 보성고등학교 교사로 근무했다.  1937년에 발간한 첫시집 『대지』와 『만가』 『동물시집』 『빙화』 『피리』 등이 있다.","","","보성고 교정","전철 5호선 올림픽공원역(1번 출구)에서 하차하여 둔촌사거리 방면으로 500m 지점 우측에 위치  버스 3413  3412  3214  30-5 등","서울문학지도  |  서울시 문화예술과 (02-2133-2561)","","","","","","","","","","","","","","명칭","개요","","","위치","교통편","출처","","","","","","","","","","","","","","","1","4","#0000FF","","2015-10-07 16:45:22.0","2015-10-08 16:22:42.0"
"양재대로 1278","송파구 방이동 89-22","127.135139000","37.519644900","100228","SeoulLiter_061","KOR","김기림 시비","","송파구","방이동","","89","22","","","김기림 시비","1990년 5월 보성고등학교 본관 왼쪽에 건립했다.  보성고 동문 김기림은 함북 성진 출신으로 1933년 이상 이효석 박태원 등과 구인회를 결성했다.  1990년 김광균 구상 등이 보성고등학교 송파구 교정에 김기림 시인의 시비를 세웠다.  시비에는 그의 대표시 「바다와 나비」가 새겨져 있다.","'아무도 그에게 수심(水深)을 일러준 일이 없기에 흰나비는 도무지 바다가 무섭지 않다. 청(靑)무우밭인가 해서 내려갔다가는 어린 날개가 물결에 젖어서 공주처럼 지쳐서 돌아온다. 삼월달 바다가 꽃이 피지 않아서 서글픈 나비 허리에 새파란 초승달이 시리다.'  김기림 「바다와 나비」","","보성고 교정","전철 5호선 올림픽공원역(1번 출구)에서 하차하여 둔촌사거리 방면으로 500m 지점 우측에 위치  버스 3413  3412  3214  30-5 등","서울문학지도  |  서울시 문화예술과 (02-2133-2561)","","","","","","","","","","","","","","명칭","개요","관련 작품","","위치","교통편","출처","","","","","","","","","","","","","","","1","4","#0000FF","","2015-10-07 16:45:22.0","2015-10-08 16:25:41.0"
"양재대로 1278","송파구 방이동 89-22","127.134927900","37.519294500","100228","SeoulLiter_062","KOR","김광균 시비","","송파구","방이동","","89","22","","","김광균 시비","김광균(1914~1993년) 시인의 대표시 「와사등」이 새겨진 시비를 2014년 5월 24일 보성고 교정에 건립했다. 김광균 시인 탄생 100주년을 기념하여 세웠다.  1930년대 이육사 시인 신석초 시인과 《자오선》《시인부락》등 동인지에 작품을 발표했다.  『와사등』 『기항지』 『황혼가』 등의 시집을 출간했다.","","","보성고 교정","전철 5호선 올림픽공원역(1번 출구)에서 하차하여 둔촌사거리 방면으로 500m 지점 우측에 위치  버스 3413  3412  3214  30-5 등","서울문학지도  |  서울시 문화예술과 (02-2133-2561)","","","","","","","","","","","","","","명칭","개요","","","위치","교통편","출처","","","","","","","","","","","","","","","1","4","#0000FF","","2015-10-07 16:45:22.0","2015-10-08 16:24:11.0"
"흑석로13길 3","동작구 흑석동 186","126.960298706","37.508930847","100228","SeoulLiter_063","KOR","심훈 시비","","동작구","흑석동","","186","","","","심훈 시비","심 훈(1901~1936)은 서울 출신으로 소설 「상록수」와 시 「그날이 오면」으로 유명한 작가다.  그의 대표시 「그날이 오면」은 보리스파스테르나크와 게오르게세페리스와 같은 노벨문학상 수상자의 작품과 함께 뛰어난 시로 평가받았다.  이 시에는 조국의 독립과 자유의 소중함을 향한 간절한 절규가 있다.  심훈이 태어난 생가터 가까운 곳에 2014년 「그날이 오면」 전문을 새긴 시비가 건립되었다.  글씨는 이근배 시인이 썼다.","","","서울 동작구 흑석로13길 3 흑석동천주교회 내","지하철 9호선 흑석역 중앙대학교 방향 400m 지점 흑석동천주교회","서울문학지도  |  서울시 문화예술과 (02-2133-2561)","","","","","","","","","","","","","","명칭","개요","","","위치","교통편","출처","","","","","","","","","","","","","","","1","4","#0000FF","","2015-10-07 16:45:22.0","2015-10-07 16:45:22.0"
"","동작구 노량진동 155-1","126.947919400","37.514043600","100228","SeoulLiter_064","KOR","사육신공원","","동작구","노량진동","","155","1","","","사육신공원","동작구 노량진동의 한강변에 위치한 박팽년 성삼문 유응부 이개 하위지 유성원 김문기의 묘가 안장된 공원이다.  이곳은 사육신의 충성심을 추모하고자 1681년에 민절서원을 건립했고 1782년에 신도비를 세웠다.  1955년 5월에 육각의 사육신비를 세웠고 1978년 서울특별시에서 3240평이었던 묘역을 9370평으로 확장했다. 사육신의 위패를 모신 의절사(義節祠) 불이문(不二門) 홍살문 비각 사육신시비 사육신 기념관이 건립되었다.","","","동작구 노량진1동 155-1","지하철 9호선 노들역 1번출구 500m 지점","서울문학지도  |  서울시 문화예술과 (02-2133-2561)","","","","","","","","","","","","","","명칭","개요","","","위치","교통편","출처","","","","","","","","","","","","","","","1","4","#0000FF","","2015-10-07 16:45:22.0","2015-10-07 16:49:44.0"
"","동작구 노량진동 155-1","126.948059000","37.513521500","100228","SeoulLiter_065","KOR","성삼문 묘소","","동작구","노량진동","","155","1","","","성삼문 묘소","성삼문(1418~1456)은 단종의 복위운동을 하다가 세상을 떠난 사육신 가운데 한 사람이다. 조선시대의 대표적인 충신으로 추앙받고 있다.  성삼문의 <충의가>는 곧은 절개를 표현한 대표적인 시조이다.","'이 몸이 죽어가서 무엇이 될고 하니 봉래산 제일봉에 낙락장송 되었다가 백설이 만건곤할 제 독야청청 하리라'  성삼문","","동작구 노량진1동 155-1","지하철 9호선 노들역 1번출구 500m 지점","서울문학지도  |  서울시 문화예술과 (02-2133-2561)","","","","","","","","","","","","","","명칭","개요","관련 작품","","위치","교통편","출처","","","","","","","","","","","","","","","1","4","#0000FF","","2015-10-07 16:45:22.0","2015-10-07 16:49:05.0"
"현충로 210","동작구 동작동 산 41-2","126.973876000","37.500502000","100228","SeoulLiter_066","KOR","국립서울현충원","","동작구","동작동","산","41","2","","","국립서울현충원","국가와 민족을 위해 고귀한 삶을 희생하고 국가발전에 커다란 발자취를 남긴 사람들이 안장되어 있는 국립서울현충원에는 애국의 삶을 살았던 문인들의 시비와 묘소를 만나볼 수 있다.","","","전철4호선 9호선 동작역 하차 8번 출구 동작동국립묘지 정문","","서울문학지도  |  서울시 문화예술과 (02-2133-2561)","","","","","","","","","","","","","","명칭","개요","","","위치","","출처","","","","","","","","","","","","","","","1","4","#0000FF","","2015-10-07 16:45:22.0","2015-10-08 16:27:27.0"
"현충로 210","동작구 동작동 산 41-2","126.967977300","37.502711000","100228","SeoulLiter_067","KOR","주시경 묘소","","동작구","동작동","산","41","2","","","주시경 묘소","주시경(1876~1914)은 황해도 봉산 출신으로 한글학자이다.  1908년 국어연구학회를 조직하여 한글의 발전을 주장했다.  세종대왕이 만든 한글을 잘 연구하여 보전하면 우리 민족이 부강해질 수 있음을 역설했다. 일제강점기에도 한글이 살아남을 수 있었던 것은 주시경 선생의 한글 연구와 사랑이 큰 역할을 했다.  이런 공로를 인정받아 동작동국립묘지 국가유공자 제 2묘역에 안장되었다.","","","국립서울현충원 내","","서울문학지도  |  서울시 문화예술과 (02-2133-2561)","","","","","","","","","","","","","","명칭","개요","","","위치","","출처","","","","","","","","","","","","","","","1","4","#0000FF","","2015-10-07 16:45:22.0","2015-10-08 16:28:15.0"
"현충로 210","동작구 동작동 산 41-2","126.969757300","37.497382900","100228","SeoulLiter_068","KOR","이은상 시비와 묘소","","동작구","동작동","산","41","2","","","이은상 시비와 묘소","이은상(1903~1982)은 경남 마산 출신으로 시조의 현대화에 기여한 문인이다.  「가고파」와 「봄처녀」등의 작사가로 유명하며 일제강점기 때에 조선어학회 사건으로 고난을 당하기도 했으며 사상범으로 구속되어 있다가 해방이 되자 풀려났다.  교수 예술원회원 한글학회 시조작가협회 등에서 활동했다.  장례식은 사회장으로 치러져 국립서울현충원 국가유공자 제 1묘역에 안장되었다.","","","국립서울현충원 내","","서울문학지도  |  서울시 문화예술과 (02-2133-2561)","","","","","","","","","","","","","","명칭","개요","","","위치","","출처","","","","","","","","","","","","","","","1","4","#0000FF","","2015-10-07 16:45:22.0","2015-10-08 16:34:43.0"
"상도로 369","동작구 상도동 511","126.958664100","37.495940000","100228","SeoulLiter_069","KOR","김현승 시비","","동작구","상도동","","511","","","","김현승 시비","김현승(1913~1975)은 평양 출신으로 1934년 장시 「쓸쓸한 겨울 저녁이 올 때 당신들은」을 〈동아일보〉에 발표하며 문단활동을 시작했다 . 일제강점기 신사참배를 거부하다 구속되기도 했다.  주로 기독교 사상에 토대를 바탕으로 한 시를 썼으며 대표시로 「가을의 기도」가 있다.  숭실대학교 도서관 옆에 박두진 시인이 육필로 쓴 시를 새긴 「가을의 기도」시비가 서 있다.","'가을에는 기도하게 하소서 낙엽들이 지는 때를 기다려 내게 주신 겸허한 모국어로 나를 채우소서  가을에는 사랑하게 하소서 오직 한 사람을 택하게 하소서 가장 아름다운 열매를 위하여 이 비옥한 시간을 가꾸게 하소서.  가을에는 호올로 있게 하소서 나의 영혼 굽이치는 바다와 백합의 골짜기를 지나 마른 나뭇가지 위에 다다른 까마귀 같이'   김현승 「가을의 기도」","","지하철 7호선 숭실대역 하차 숭실대 도서관 옆","","서울문학지도  |  서울시 문화예술과 (02-2133-2561)","","","","","","","","","","","","","","명칭","개요","관련 작품","","위치","","출처","","","","","","","","","","","","","","","1","4","#0000FF","","2015-10-07 16:45:22.0","2015-10-08 16:34:19.0"
"능동로 216","광진구 능동 18","127.081413100","37.550668900","100228","SeoulLiter_070","KOR","서울어린이대공원","","광진구","능동","","18","","","","서울어린이대공원","광진구 화양동에 위치한 서울어린이대공원에 문학비가 있다는 것을 알고 있는 사람은 많지 않다.  동시와 동요를 따라 부르며 공원의 숲 길을 걷고 있노라면 동심으로 돌아가게 한다.","","","광진구 능동로 216","지하철 5호선 아차산역 4번 출구 - 어린이 대공원 후문 지하철 7호선 어린이대공원역 1번 출구 - 어린이대공원 정문 / 입장료: 무료","서울문학지도  |  서울시 문화예술과 (02-2133-2561)","","","","","","","","","","","","","","명칭","개요","","","위치","교통편","출처","","","","","","","","","","","","","","","1","4","#0000FF","","2015-10-07 16:45:22.0","2015-10-08 16:38:34.0"
"능동로 216","광진구 능동 18","127.080797100","37.549481400","100228","SeoulLiter_071","KOR","방정환 동상","","광진구","능동","","18","","","","방정환 동상","방정환(1899~1931)은 서울 출신으로 한국 현대 아동문학의 토대를 놓은 작가다.  1922년 어린이날을 선포했으며 1923년 아동잡지 《어린이》를 창간했다. 윤극영. 손진태 등과 색동회를 조직하기도 했으며 1978년 정부에서 금관문화훈장과 1980년 건국포장을 수상했다.  동상이 어린이대공원 야외음악당 객석 정상에 자리 잡고 있다.","","","어린이대공원 내 위치","지하철 5호선 아차산역 4번 출구 - 어린이 대공원 후문 지하철 7호선 어린이대공원역 1번 출구 - 어린이대공원 정문 / 입장료: 무료","서울문학지도  |  서울시 문화예술과 (02-2133-2561)","","","","","","","","","","","","","","명칭","개요","","","위치","교통편","출처","","","","","","","","","","","","","","","1","4","#0000FF","","2015-10-07 16:45:22.0","2015-10-08 16:43:09.0"
"능동로 216","광진구 능동 18","127.080292000","37.548707200","100228","SeoulLiter_072","KOR","김동인 문학비","","광진구","능동","","18","","","","김동인 문학비","김동인(1900-1951)은 평양 출생으로 1919년 우리나라 최초의 문예동인지 《창조》를 발간했던 작가다.  당시 주류였던 이광수의 계몽주의를 극복하기 위해 사실주의적인 수법을 문학에 도입하여 한국 근대 단편소설의 토대를 확립했다.  1925년대 각광받던 신경향파와 프로문학에 대항하여 ‘예술지상주의’문학을 주장하기도 했다.  서울어린이대공원 야외음악당 입구에 흉상과 문학비가 건립되었다.","","","어린이대공원 내 위치","지하철 5호선 아차산역 4번 출구 - 어린이 대공원 후문 지하철 7호선 어린이대공원역 1번 출구 - 어린이대공원 정문 / 입장료: 무료","서울문학지도  |  서울시 문화예술과 (02-2133-2561)","","","","","","","","","","","","","","명칭","개요","","","위치","교통편","출처","","","","","","","","","","","","","","","1","4","#0000FF","","2015-10-07 16:45:22.0","2015-10-08 16:45:08.0"
"능동로 216","광진구 능동 18","127.080452700","37.551332500","100228","SeoulLiter_073","KOR","윤석중 동시비","","광진구","능동","","18","","","","윤석중 동시비","윤석중(1911~2003)은 서울 출신의 동시와 동요작가다.  1924년 《신소년》에 동시 「봄」과 1925년 《어린이》에 「오뚜기」를 발표해 문단활동을 시작했다. 1933년 《어린이》와 1934년<소년중앙>주간 한국문인협회 아동분과 위원장 등을 역임했다.  1932년에 출간한 『윤석중동요집』에는 「낮에 나온 반달」 「퐁당 퐁당」 「도리 도리 짝짝궁」등이 수록되어 있다.  1982년 한국문학상을 수상했다.  어린이대공원 와팝홀 앞 잔디광장에 동시비가 있다.","'새 나라의 어린이는 일찍 일어납니다  잠꾸러기 없는 나라 우리나라 좋은 나라  새 나라의 어린이는 서로서로 돕습니다  욕심쟁이 없는 나라 우리나라 좋은 나라'","","어린이대공원 내 위치","지하철 5호선 아차산역 4번 출구 - 어린이 대공원 후문 지하철 7호선 어린이대공원역 1번 출구 - 어린이대공원 정문 / 입장료: 무료","서울문학지도  |  서울시 문화예술과 (02-2133-2561)","","","","","","","","","","","","","","명칭","개요","관련 작품","","위치","교통편","출처","","","","","","","","","","","","","","","1","4","#0000FF","","2015-10-07 16:45:22.0","2015-10-08 16:47:21.0"
"능동로 216","광진구 능동 18","127.079413500","37.549512500","100228","SeoulLiter_074","KOR","강소천 동시비","","광진구","능동","","18","","","","강소천 동시비","강소천(1915~1963) 함남 고원 출신으로 1930년 《신소년》에 「버드나무 열매」라는 동시를 발표하며 문단 활동을 시작했다.  동시 「닭」 시비가 어린이대공원 꿈마루 앞에 세워져 있다.  현실에 관한 긍정적인 생각과 밝고 아름다운 생활을 표현한 동시와 동화를 많이 창작했던 작가로 어린이헌장을 기초했다.  사후에 <소천문학상>이 제정되었다.","'물 한 모금 입에 물고  하늘 한번 쳐다보고  또 한 모금 입에 물고  구름 한번 쳐다보고'  강소천의 「닭」 전문","","어린이대공원 내 위치","지하철 5호선 아차산역 4번 출구 - 어린이 대공원 후문 지하철 7호선 어린이대공원역 1번 출구 - 어린이대공원 정문 / 입장료: 무료","서울문학지도  |  서울시 문화예술과 (02-2133-2561)","","","","","","","","","","","","","","명칭","개요","관련 작품","","위치","교통편","출처","","","","","","","","","","","","","","","1","4","#0000FF","","2015-10-07 16:45:22.0","2015-10-08 16:49:38.0"
"능동로 216","광진구 능동 18","127.079896600","37.551578400","100228","SeoulLiter_075","KOR","윤극영 노래비","","광진구","능동","","18","","","","윤극영 노래비","윤극영(1903~1990)은 동시와 동요 작곡의 선구자이다.  도쿄음악학교 재학시절인 1922년 방정환과 함께 색동회를 조직하고 어린이운동을 선도했다.  일제강점기부터 국민의 노래였던 「반달」은 그가 쓴 동시로 작곡했다.  1968년 창경궁에 세워졌던 이 노래비는 1984년 어린이대공원으로 옮겨졌으며 와팝홀 앞 잔디광장에 세워졌다.","'푸른 하늘 은하수 하얀 쪽배엔 계수나무 한 나무 토끼 한마리 돛대도 아니 달고 삿대도 없이 가기도 잘도 간다 서쪽나라로'  윤극영 「반달」","","어린이대공원 내 위치","지하철 5호선 아차산역 4번 출구 - 어린이 대공원 후문 지하철 7호선 어린이대공원역 1번 출구 - 어린이대공원 정문 / 입장료: 무료","서울문학지도  |  서울시 문화예술과 (02-2133-2561)","","","","","","","","","","","","","","명칭","개요","관련 작품","","위치","교통편","출처","","","","","","","","","","","","","","","1","4","#0000FF","","2015-10-07 16:45:22.0","2015-10-08 16:50:17.0"
"능동로 216","광진구 능동 18","127.077622600","37.550303800","100228","SeoulLiter_076","KOR","이원수 문학비","","광진구","능동","","18","","","","이원수 문학비","이원수(1911~1981)는 경남 양산 출신으로 1926년 동시 「고향의 봄」이 《어린이》잡지에 당선되어 문학 활동을 시작했다.  대표작 「고향의 봄」은 홍난파의 작곡으로 한국인의 애창곡이 되었다.  서울어린이대공원 어린이회관 옆에 「고향의 봄」 가사가 새겨진 <이원수 문학비>가 건립되었다.","'나의 살던 고향은 꽃 피는 산골 복숭아꽃 살구꽃 아기 진달래 울긋불긋 꽃 대궐 차리인 동네 그 속에서 놀던 때가 그립습니다'  이원수의 「고향의 봄」","","어린이대공원 내 위치","지하철 5호선 아차산역 4번 출구 - 어린이 대공원 후문 지하철 7호선 어린이대공원역 1번 출구 - 어린이대공원 정문 / 입장료: 무료","서울문학지도  |  서울시 문화예술과 (02-2133-2561)","","","","","","","","","","","","","","명칭","개요","관련 작품","","위치","교통편","출처","","","","","","","","","","","","","","","1","4","#0000FF","","2015-10-07 16:45:22.0","2015-10-08 16:52:45.0"
"사근동길 24-21","성동구 사근동 110","127.043686900","37.558452000","100228","SeoulLiter_077","KOR","박목월 시비","","성동구","사근동","","110","","","","박목월 시비","박목월(1916~1978) 시인은 경북 경주 출생이며 1939년 《문장》에 정지용 시인의 추천으로 등단했다.  조지훈 박두진과 함께 청록파의 한 사람으로 아세아자유문학상 대한민국 문화예술상 서울시예술상 국민훈장모란장 등을 수상했다. 예술원 회원 한국시인협회 회장 한양대 문리 대학장을 역임했다.","'산은 구강산(九江山) 보랏빛 석산(石山) 산도화(山桃花) 두어 송이 송이 버는데 봄눈 녹아 흐르는 옥같은 물에 사슴은 암사슴 발을 씻는다.'  박목월 「산도화」","","성동구 왕십리로 222 (한양대학교 서울캠퍼스 인문대 중간 공터)","","서울문학지도  |  서울시 문화예술과 (02-2133-2561)","","","","","","","","","","","","","","명칭","개요","관련 작품","","위치","","출처","","","","","","","","","","","","","","","1","4","#0000FF","","2015-10-07 16:45:22.0","2015-10-08 16:54:14.0"
"","","127.074128400","37.695605600","100228","SeoulLiter_078","KOR","매월정 시비","","의정부시","장암동","산","165","","","","매월정 시비","김시습(1435~ 1493)은 생육신의 한 사람으로 우리나라 최초의 한문소설인 금오신화의 저자이다.  수락산 깔딱고개 463m 지점에는 정자 하나가 세워져 있는데 김시습이 수락산에 은거하며 살았던 것을 기념하여 세워진 것으로 그의 호를 인용하여 <매월정>이라 부른다.  매월정 바로 앞에는 김시습의 풍류가 느껴지는 시비가 세워져 있어 오가는 사람들을 즐겁게 하고 있다.","","","지하철 7호선 수락산역 하차 1번 출구 덕성여대 수련원 방향 깔딱고개 정상 왼쪽에 위치","","서울문학지도  |  서울시 문화예술과 (02-2133-2561)","","","","","","","","","","","","","","명칭","개요","","","위치","","출처","","","","","","","","","","","","","","","1","4","#0000FF","","2015-10-07 16:45:22.0","2015-10-07 16:52:05.0"
"동일로242길 64","노원구 상계동 1007-4","127.058966700","37.674440600","100228","SeoulLiter_079","KOR","천상병 숲길","","노원구","상계동","","1007","4","","","천상병 숲길","천상병 시인이 자주 들락거렸을 수락산 입구는 주말이면 많은 사람들이 찾는 등산로다.  그 입구의 지명이 <아름다운 소풍 천상병 산길>이다.  등산객들은 이 길을 지나가면서 그의 시들을 자연스럽게 읽게 된다.","'나 하늘로 돌아가리라. 새벽빛 와 닿으면 스러지는 이슬 더불어 손에 손을 잡고  나 하늘로 돌아가리라 노을빛 함께 단둘이서 기슭에서 놀다가 구름 손짓하며는  나 하늘로 돌아가리라 아름다운 이 세상 소풍 끝내는 날 가서 아름다웠더라고 말하리라'","","지하철 7호선 수락산역 하차 3번 출구 수락산디자인거리 끝나는 곳에서 천상병 숲길이 시작","","서울문학지도  |  서울시 문화예술과 (02-2133-2561)","","","","","","","","","","","","","","명칭","개요","관련 작품","","위치","","출처","","","","","","","","","","","","","","","1","4","#0000FF","","2015-10-07 16:45:22.0","2015-10-08 17:04:33.0"
"동일로242마길 6","노원구 상계동 1006-4","127.059281300","37.674351700","100228","SeoulLiter_080","KOR","천상병 공원","","노원구","상계동","","1006","4","","","천상병 공원","천상병(1930~1993) 시인은 서울 노원구 상계동 수락산 입구에 살았다.  이런 인연으로 이곳에 귀천정이란 정자가 세워지고 그의 시비를 세워서 <천상병공원>이라고 이름을 붙인 약 100평 정도의 소공원이 자리잡고 있다.  이곳에 가면 시비와 육필 원고를 새긴 의자 귀천정 천상병 시인을 형상화한 1.4m 높이의 청동 등신상이 반긴다.  자녀가 없던 천상병이지만 이곳에서는 아이들과 즐겁게 어울리는 시인의 모습이 정겹다.  시비에는 그의 대표 시 「귀천」이 음각되어 있다.  특이한 것은 이곳에 타임캡슐을 매설해 두었다는 사실이다.  타임캡슐에는 천상병 시인이 생전에 썼던 안경 찻잔 집필원고 같은 시인의 유품 41종 203점을 수집하여 타임캡슐을 묻었다.  천상병 시인의 타임캡술은 탄생 200주년을 맞는 2130년 1월 29일 개봉된다는 내용이 쓰여 있다.","","","지하철 7호선 수락산역 하차 3번 출구 수락산디자인거리 오른쪽 끝 지점에 위치","","서울문학지도  |  서울시 문화예술과 (02-2133-2561)","","","","","","","","","","","","","","명칭","개요","","","위치","","출처","","","","","","","","","","","","","","","1","4","#0000FF","","2015-10-07 16:45:22.0","2015-10-08 16:58:37.0"
"망우로 570","중랑구 망우동 산 57-1","127.115180500","37.597527800","100228","SeoulLiter_081","KOR","망우리공원 문인 묘소","","중랑구","망우동","산","57","1","","","망우리공원 문인 묘소","망우리공원은 1933년부터 1973년까지 약 2만 8500여 명이 안장되었던 공동묘지다.  현재는 약 9000여기가 남아있다.  공원묘지 순환도로 5.2km주변에 문인들의 묘소가 산재하여 있다.  관리사무소에서 약 100m쯤 오르면 두 개의 길이 시작되는 지점에 닿는다.  일명 ‘망우사색의 길’의 출발점이다.  현재 이곳은 많은 시민들이 즐겨찾는 산책길이 되었다.","","","서울시 망우로 570","중앙선 망우역 구리 방향 혹은 전철 7호선 상봉역 5번 출구 > 구리 방향 버스( 3 65 88 166 201 202 2227)번 탑승 > 남일주유소 정거장에서 하차 > 도보 10분 > 망우리공원묘지 관리사무소","서울문학지도  |  서울시 문화예술과 (02-2133-2561)","","","","","","","","","","","","","","명칭","개요","","","위치","교통편","출처","","","","","","","","","","","","","","","1","4","#0000FF","","2015-10-07 16:45:22.0","2015-10-08 17:22:18.0"
"망우로 570","중랑구 망우동 산 57-1","127.111809300","37.590098600","100228","SeoulLiter_082","KOR","한용운 묘소","","중랑구","망우동","산","57","1","","","한용운 묘소","","","","망우리공원묘지 관리사무소에서 순환로 왼쪽 방향으로 올라가면 동락천 약수터가 있다.  이곳에서 5~10분 정도 더 올라가면 길 왼쪽에 <만해한용운 연보비>가 서 있다.  그 지점에서 길 건너 우측으로 산방향으로 난 계단을 따라 약 20m 지점에 올라가면 만해 한용운 묘소가 자리잡고 있다.","","서울문학지도  |  서울시 문화예술과 (02-2133-2561)","","","","","","","","","","","","","","명칭","","","","위치","","출처","","","","","","","","","","","","","","","1","4","#0000FF","","2015-10-07 16:45:22.0","2015-10-08 17:24:48.0"
"망우로 570","중랑구 망우동 산 57-1","127.112322400","37.590542000","100228","SeoulLiter_083","KOR","방정환 묘소","","중랑구","망우동","산","57","1","","","방정환 묘소","","","","<동락천약수터>에서 도보로 3분 쯤 걷다보면 오른쪽 계단 경사길 20m 지점에 위치한다.  작은 화강석으로 조각한 묘소 상석에는 유리상자가 놓여 있다.  그 안에는 항상 시들지 않을 조화가 담겨 있다.  작은 비석에는 <童心如仙 어린이의 동무 소파 방정환묘지> 라고 쓰여 있다.","","서울문학지도  |  서울시 문화예술과 (02-2133-2561)","","","","","","","","","","","","","","명칭","","","","위치","","출처","","","","","","","","","","","","","","","1","4","#0000FF","","2015-10-07 16:45:22.0","2015-10-08 17:25:30.0"
"망우로 570","중랑구 망우동 산 57-1","127.116269400","37.592848800","100228","SeoulLiter_084","KOR","김상용 묘소","","중랑구","망우동","산","57","1","","","김상용 묘소","","","","관리사무소 왼쪽 순환로를 따라 올라가면 형제약수터 이정표가 있다.  이 지점에서 내리막 길 초입에 김상용 시인의 묘소가 자리잡고 있다.","","서울문학지도  |  서울시 문화예술과 (02-2133-2561)","","","","","","","","","","","","","","명칭","","","","위치","","출처","","","","","","","","","","","","","","","1","4","#0000FF","","2015-10-07 16:45:22.0","2015-10-08 17:27:15.0"
"망우로 570","중랑구 망우동 산 57-1","127.106620400","37.588170600","100228","SeoulLiter_085","KOR","계용묵 묘소","","중랑구","망우동","산","57","1","","","계용묵 묘소","","","","망우리공원묘지 관리사무소에서 순환로 우측 방향의 전주(전봇대) 29번에서 약 120m 아래로 내려가면 소나무 몇 그루 서 있는 곳 밑에 소설가 계용묵(1904~1961) 선생의 묘소가 자리 잡고 있다.","","서울문학지도  |  서울시 문화예술과 (02-2133-2561)","","","","","","","","","","","","","","명칭","","","","위치","","출처","","","","","","","","","","","","","","","1","4","#0000FF","","2015-10-07 16:45:22.0","2015-10-08 17:29:47.0"
"망우로 570","중랑구 망우동 산 57-1","127.113112500","37.596547600","100228","SeoulLiter_086","KOR","박인환 묘소","","중랑구","망우동","산","57","1","","","박인환 묘소","","","","<망우사색의길>의 오른쪽으로 조금 올라가면 전주(전봇대) 4번 옆 급경사 계단 길로 40m쯤 내려가면 묘소에 닿는다.","","서울문학지도  |  서울시 문화예술과 (02-2133-2561)","","","","","","","","","","","","","","명칭","","","","위치","","출처","","","","","","","","","","","","","","","1","4","#0000FF","","2015-10-07 16:45:22.0","2015-10-08 17:28:51.0"
"창의문로 119","종로구 청운동 3-100","126.966944400","37.592214800","100228","SeoulLiter_087","KOR","윤동주문학관","","종로구","청운동","","3","100","","","윤동주문학관","윤동주 시인의 유가족이 자료 기증과 감수를 통해 마련된 공간으로 윤동주 시인의 삶과 문학을 자세하게 살펴볼 수 있다.  가압장과 물탱크를 리모델링하여 개관한 문학관 건물은 서울시 건축상을 받기도 하였다.","","","서울 종로구 창의문로 119","지하철 3호선 경복궁역 3번 출구 50m 지점에 있는 버스정류장에서 1020번 7022번 7212번 버스 탑승 후 자하문고개에 있는 ‘윤동주문학관’ 앞 버스정류장에서 하차","서울문학지도  |  서울시 문화예술과 (02-2133-2561)","","","","","","","","","","","","","","명칭","개요","","","위치","교통편","출처","","","","","","","","","","","","","","","1","4","#0000FF","","2015-10-07 16:45:22.0","2015-10-07 17:22:20.0"